Removed Pin From Net: NetName=INTA_MUX_1 Pin=P1-1
Removed Pin From Net: NetName=INTA_MUX_2 Pin=P1-2
Removed Pin From Net: NetName=INTB_MUX_1 Pin=P1-3
Removed Pin From Net: NetName=INTB_MUX_2 Pin=P1-4
Removed Pin From Net: NetName=SCL Pin=P1-5
Removed Pin From Net: NetName=VCC Pin=P1-6
Removed Pin From Net: NetName=SDA Pin=P1-7
Removed Pin From Net: NetName=GND Pin=P1-8
Removed Pin From Net: NetName=X1 Pin=P2-1
Removed Pin From Net: NetName=X2 Pin=P2-3
Removed Pin From Net: NetName=X3 Pin=P2-5
Removed Pin From Net: NetName=X4 Pin=P2-7
Removed Pin From Net: NetName=X5 Pin=P2-9
Removed Pin From Net: NetName=X5_GND Pin=P2-10
Removed Pin From Net: NetName=X6 Pin=P2-11
Removed Pin From Net: NetName=X6_GND Pin=P2-12
Removed Pin From Net: NetName=X7 Pin=P2-13
Removed Pin From Net: NetName=X7_GND Pin=P2-14
Removed Pin From Net: NetName=X8 Pin=P2-15
Removed Pin From Net: NetName=X8_GND Pin=P2-16
Removed Pin From Net: NetName=X9 Pin=P2-17
Removed Pin From Net: NetName=X9_GND Pin=P2-18
Removed Pin From Net: NetName=X10 Pin=P2-19
Removed Pin From Net: NetName=X10_GND Pin=P2-20
Removed Pin From Net: NetName=X11 Pin=P2-21
Removed Pin From Net: NetName=X11_GND Pin=P2-22
Removed Pin From Net: NetName=X12 Pin=P2-23
Removed Pin From Net: NetName=X12_GND Pin=P2-24
Removed Pin From Net: NetName=X13 Pin=P2-25
Removed Pin From Net: NetName=X13_GND Pin=P2-26
Removed Pin From Net: NetName=X14 Pin=P2-27
Removed Pin From Net: NetName=X14_GND Pin=P2-28
Removed Pin From Net: NetName=X15 Pin=P2-29
Removed Pin From Net: NetName=X15_GND Pin=P2-30
Removed Pin From Net: NetName=X16 Pin=P2-31
Removed Pin From Net: NetName=X16_GND Pin=P2-32
Removed Pin From Net: NetName=X17 Pin=P3-1
Removed Pin From Net: NetName=X17_GND Pin=P3-2
Removed Pin From Net: NetName=X18 Pin=P3-3
Removed Pin From Net: NetName=X18_GND Pin=P3-4
Removed Pin From Net: NetName=X19 Pin=P3-5
Removed Pin From Net: NetName=X19_GND Pin=P3-6
Removed Pin From Net: NetName=X20 Pin=P3-7
Removed Pin From Net: NetName=X20_GND Pin=P3-8
Removed Pin From Net: NetName=X21 Pin=P3-9
Removed Pin From Net: NetName=X21_GND Pin=P3-10
Removed Pin From Net: NetName=X22 Pin=P3-11
Removed Pin From Net: NetName=X22_GND Pin=P3-12
Removed Pin From Net: NetName=X23 Pin=P3-13
Removed Pin From Net: NetName=X23_GND Pin=P3-14
Removed Pin From Net: NetName=X24 Pin=P3-15
Removed Pin From Net: NetName=X24_GND Pin=P3-16
Removed Pin From Net: NetName=X25 Pin=P3-17
Removed Pin From Net: NetName=X25_GND Pin=P3-18
Removed Pin From Net: NetName=X26 Pin=P3-19
Removed Pin From Net: NetName=X26_GND Pin=P3-20
Removed Pin From Net: NetName=X27 Pin=P3-21
Removed Pin From Net: NetName=X27_GND Pin=P3-22
Removed Pin From Net: NetName=X28 Pin=P3-23
Removed Pin From Net: NetName=X28_GND Pin=P3-24
Removed Pin From Net: NetName=X29 Pin=P3-25
Removed Pin From Net: NetName=X29_GND Pin=P3-26
Removed Pin From Net: NetName=X30 Pin=P3-27
Removed Pin From Net: NetName=X30_GND Pin=P3-28
Removed Pin From Net: NetName=X31 Pin=P3-29
Removed Pin From Net: NetName=X31_GND Pin=P3-30
Removed Pin From Net: NetName=X32 Pin=P3-31
Removed Pin From Net: NetName=X32_GND Pin=P3-32
Removed Member From Class: ClassName=BSH-GENERIC-SENSE-BOARD Member=P2
Removed Member From Class: ClassName=BSH-GENERIC-SENSE-BOARD Member=P3
Added Component: Designator=D?(J1-0603)
Add component. Clean all parameters for all variants
Add component (AddParameter): Name = "Created"; Value = "09.03.2011"; VariantName = "[No Variations]"
Add component (AddParameter): Name = "Datasheet1"; Value = "263"; VariantName = "[No Variations]"
Add component (AddParameter): Name = "Datasheet2"; Value = ""; VariantName = "[No Variations]"
Add component (AddParameter): Name = "Last Revision"; Value = ""; VariantName = "[No Variations]"
Add component (AddParameter): Name = "Manufacturer1"; Value = "AVAGO TECHNOLOGIES"; VariantName = "[No Variations]"
Add component (AddParameter): Name = "Manufacturer2"; Value = ""; VariantName = "[No Variations]"
Add component (AddParameter): Name = "MTBF"; Value = ""; VariantName = "[No Variations]"
Add component (AddParameter): Name = "Order Code1"; Value = "HSMG-C170"; VariantName = "[No Variations]"
Add component (AddParameter): Name = "Order Code2"; Value = ""; VariantName = "[No Variations]"
Add component (AddParameter): Name = "Type"; Value = ""; VariantName = "[No Variations]"
Add component (AddParameter): Name = "Value"; Value = "POWER_LED"; VariantName = "[No Variations]"
Added Component: Designator=P?(HDR2X20)
Add component. Clean all parameters for all variants
Add component (AddParameter): Name = "LatestRevisionDate"; Value = "17-Jul-2002"; VariantName = "[No Variations]"
Add component (AddParameter): Name = "LatestRevisionNote"; Value = "Re-released for DXP Platform."; VariantName = "[No Variations]"
Add component (AddParameter): Name = "Publisher"; Value = "Altium Limited"; VariantName = "[No Variations]"
Added Component: Designator=P?(HDR2X20)
Add component. Clean all parameters for all variants
Add component (AddParameter): Name = "LatestRevisionDate"; Value = "17-Jul-2002"; VariantName = "[No Variations]"
Add component (AddParameter): Name = "LatestRevisionNote"; Value = "Re-released for DXP Platform."; VariantName = "[No Variations]"
Add component (AddParameter): Name = "Publisher"; Value = "Altium Limited"; VariantName = "[No Variations]"
Added Component: Designator=R?(J1-0603)
Add component. Clean all parameters for all variants
Add component (AddParameter): Name = "Created"; Value = "05.07.2011"; VariantName = "[No Variations]"
Add component (AddParameter): Name = "Datasheet1"; Value = "97-1"; VariantName = "[No Variations]"
Add component (AddParameter): Name = "Datasheet2"; Value = "97-2"; VariantName = "[No Variations]"
Add component (AddParameter): Name = "Last Revision"; Value = ""; VariantName = "[No Variations]"
Add component (AddParameter): Name = "Manufacturer1"; Value = "ROYAL OHM"; VariantName = "[No Variations]"
Add component (AddParameter): Name = "Manufacturer2"; Value = "HITANO"; VariantName = "[No Variations]"
Add component (AddParameter): Name = "MTBF"; Value = ""; VariantName = "[No Variations]"
Add component (AddParameter): Name = "Order Code1"; Value = "0603SAJ0103T5E"; VariantName = "[No Variations]"
Add component (AddParameter): Name = "Order Code2"; Value = "RC0603JK-10K"; VariantName = "[No Variations]"
Add component (AddParameter): Name = "Type"; Value = ""; VariantName = "[No Variations]"
Add component (AddParameter): Name = "Value"; Value = "1K"; VariantName = "[No Variations]"
Added Pin To Net: NetName=GND Pin=D?-2
Added Pin To Net: NetName=SCL Pin=P1-1
Added Pin To Net: NetName=VCC Pin=P1-2
Added Pin To Net: NetName=SDA Pin=P1-3
Added Pin To Net: NetName=GND Pin=P1-4
Added Pin To Net: NetName=X1 Pin=P?-1
Added Pin To Net: NetName=X17 Pin=P?-1
Added Pin To Net: NetName=X17_GND Pin=P?-2
Added Pin To Net: NetName=X2 Pin=P?-3
Added Pin To Net: NetName=X18 Pin=P?-3
Added Pin To Net: NetName=X18_GND Pin=P?-4
Added Pin To Net: NetName=X3 Pin=P?-5
Added Pin To Net: NetName=X19 Pin=P?-5
Added Pin To Net: NetName=X19_GND Pin=P?-6
Added Pin To Net: NetName=X4 Pin=P?-7
Added Pin To Net: NetName=X20 Pin=P?-7
Added Pin To Net: NetName=X20_GND Pin=P?-8
Added Pin To Net: NetName=X5 Pin=P?-9
Added Pin To Net: NetName=X21 Pin=P?-9
Added Pin To Net: NetName=X5_GND Pin=P?-10
Added Pin To Net: NetName=X21_GND Pin=P?-10
Added Pin To Net: NetName=X6 Pin=P?-11
Added Pin To Net: NetName=X22 Pin=P?-11
Added Pin To Net: NetName=X6_GND Pin=P?-12
Added Pin To Net: NetName=X22_GND Pin=P?-12
Added Pin To Net: NetName=X7 Pin=P?-13
Added Pin To Net: NetName=X23 Pin=P?-13
Added Pin To Net: NetName=X7_GND Pin=P?-14
Added Pin To Net: NetName=X23_GND Pin=P?-14
Added Pin To Net: NetName=X8 Pin=P?-15
Added Pin To Net: NetName=X24 Pin=P?-15
Added Pin To Net: NetName=X8_GND Pin=P?-16
Added Pin To Net: NetName=X24_GND Pin=P?-16
Added Pin To Net: NetName=X9 Pin=P?-17
Added Pin To Net: NetName=X25 Pin=P?-17
Added Pin To Net: NetName=X9_GND Pin=P?-18
Added Pin To Net: NetName=X25_GND Pin=P?-18
Added Pin To Net: NetName=X10 Pin=P?-19
Added Pin To Net: NetName=X26 Pin=P?-19
Added Pin To Net: NetName=X10_GND Pin=P?-20
Added Pin To Net: NetName=X26_GND Pin=P?-20
Added Pin To Net: NetName=X11 Pin=P?-21
Added Pin To Net: NetName=X27 Pin=P?-21
Added Pin To Net: NetName=X11_GND Pin=P?-22
Added Pin To Net: NetName=X27_GND Pin=P?-22
Added Pin To Net: NetName=X12 Pin=P?-23
Added Pin To Net: NetName=X28 Pin=P?-23
Added Pin To Net: NetName=X12_GND Pin=P?-24
Added Pin To Net: NetName=X28_GND Pin=P?-24
Added Pin To Net: NetName=X13 Pin=P?-25
Added Pin To Net: NetName=X29 Pin=P?-25
Added Pin To Net: NetName=X13_GND Pin=P?-26
Added Pin To Net: NetName=X29_GND Pin=P?-26
Added Pin To Net: NetName=X14 Pin=P?-27
Added Pin To Net: NetName=X30 Pin=P?-27
Added Pin To Net: NetName=X14_GND Pin=P?-28
Added Pin To Net: NetName=X30_GND Pin=P?-28
Added Pin To Net: NetName=X15 Pin=P?-29
Added Pin To Net: NetName=X31 Pin=P?-29
Added Pin To Net: NetName=X15_GND Pin=P?-30
Added Pin To Net: NetName=X31_GND Pin=P?-30
Added Pin To Net: NetName=X16 Pin=P?-31
Added Pin To Net: NetName=X32 Pin=P?-31
Added Pin To Net: NetName=X16_GND Pin=P?-32
Added Pin To Net: NetName=X32_GND Pin=P?-32
Added Pin To Net: NetName=VCC Pin=R?-1
Added Pin To Net: NetName=NetD?_1 Pin=D?-1
Added Pin To Net: NetName=NetD?_1 Pin=R?-2
Added Net: Name=NetD?_1
Added Member To Class: ClassName=BSH-GENERIC-SENSE-BOARD Member=Component D? LED012000002
Added Member To Class: ClassName=BSH-GENERIC-SENSE-BOARD Member=Component P? Header 20X2
Added Member To Class: ClassName=BSH-GENERIC-SENSE-BOARD Member=Component P? Header 20X2
Added Member To Class: ClassName=BSH-GENERIC-SENSE-BOARD Member=Component R? RES040000305
