Added Component: Designator=P1(HDR2X5)
Add component. Clean all parameters for all variants
Add component (AddParameter): Name = "LatestRevisionDate"; Value = "17-Jul-2002"; VariantName = "[No Variations]"
Add component (AddParameter): Name = "LatestRevisionNote"; Value = "Re-released for DXP Platform."; VariantName = "[No Variations]"
Add component (AddParameter): Name = "Publisher"; Value = "Altium Limited"; VariantName = "[No Variations]"
Added Component: Designator=R1(J1-0603)
Add component. Clean all parameters for all variants
Add component (AddParameter): Name = "Created"; Value = "05.07.2011"; VariantName = "[No Variations]"
Add component (AddParameter): Name = "Datasheet1"; Value = "97-1"; VariantName = "[No Variations]"
Add component (AddParameter): Name = "Datasheet2"; Value = "97-2"; VariantName = "[No Variations]"
Add component (AddParameter): Name = "Last Revision"; Value = ""; VariantName = "[No Variations]"
Add component (AddParameter): Name = "Manufacturer1"; Value = "ROYAL OHM"; VariantName = "[No Variations]"
Add component (AddParameter): Name = "Manufacturer2"; Value = "HITANO"; VariantName = "[No Variations]"
Add component (AddParameter): Name = "MTBF"; Value = ""; VariantName = "[No Variations]"
Add component (AddParameter): Name = "Order Code1"; Value = "0603SAJ0103T5E"; VariantName = "[No Variations]"
Add component (AddParameter): Name = "Order Code2"; Value = "RC0603JK-10K"; VariantName = "[No Variations]"
Add component (AddParameter): Name = "Type"; Value = ""; VariantName = "[No Variations]"
Add component (AddParameter): Name = "Value"; Value = "1K"; VariantName = "[No Variations]"
Added Component: Designator=R2(J1-0603)
Add component. Clean all parameters for all variants
Add component (AddParameter): Name = "Created"; Value = "05.07.2011"; VariantName = "[No Variations]"
Add component (AddParameter): Name = "Datasheet1"; Value = "97-1"; VariantName = "[No Variations]"
Add component (AddParameter): Name = "Datasheet2"; Value = "97-2"; VariantName = "[No Variations]"
Add component (AddParameter): Name = "Last Revision"; Value = ""; VariantName = "[No Variations]"
Add component (AddParameter): Name = "Manufacturer1"; Value = "ROYAL OHM"; VariantName = "[No Variations]"
Add component (AddParameter): Name = "Manufacturer2"; Value = "HITANO"; VariantName = "[No Variations]"
Add component (AddParameter): Name = "MTBF"; Value = ""; VariantName = "[No Variations]"
Add component (AddParameter): Name = "Order Code1"; Value = "0603SAJ0103T5E"; VariantName = "[No Variations]"
Add component (AddParameter): Name = "Order Code2"; Value = "RC0603JK-10K"; VariantName = "[No Variations]"
Add component (AddParameter): Name = "Type"; Value = ""; VariantName = "[No Variations]"
Add component (AddParameter): Name = "Value"; Value = "1K"; VariantName = "[No Variations]"
Added Component: Designator=R3(J1-0603)
Add component. Clean all parameters for all variants
Add component (AddParameter): Name = "Created"; Value = "05.07.2011"; VariantName = "[No Variations]"
Add component (AddParameter): Name = "Datasheet1"; Value = "97-1"; VariantName = "[No Variations]"
Add component (AddParameter): Name = "Datasheet2"; Value = "97-2"; VariantName = "[No Variations]"
Add component (AddParameter): Name = "Last Revision"; Value = ""; VariantName = "[No Variations]"
Add component (AddParameter): Name = "Manufacturer1"; Value = "ROYAL OHM"; VariantName = "[No Variations]"
Add component (AddParameter): Name = "Manufacturer2"; Value = "HITANO"; VariantName = "[No Variations]"
Add component (AddParameter): Name = "MTBF"; Value = ""; VariantName = "[No Variations]"
Add component (AddParameter): Name = "Order Code1"; Value = "0603SAJ0103T5E"; VariantName = "[No Variations]"
Add component (AddParameter): Name = "Order Code2"; Value = "RC0603JK-10K"; VariantName = "[No Variations]"
Add component (AddParameter): Name = "Type"; Value = ""; VariantName = "[No Variations]"
Add component (AddParameter): Name = "Value"; Value = "1K"; VariantName = "[No Variations]"
Added Component: Designator=R4(J1-0603)
Add component. Clean all parameters for all variants
Add component (AddParameter): Name = "Created"; Value = "05.07.2011"; VariantName = "[No Variations]"
Add component (AddParameter): Name = "Datasheet1"; Value = "97-1"; VariantName = "[No Variations]"
Add component (AddParameter): Name = "Datasheet2"; Value = "97-2"; VariantName = "[No Variations]"
Add component (AddParameter): Name = "Last Revision"; Value = ""; VariantName = "[No Variations]"
Add component (AddParameter): Name = "Manufacturer1"; Value = "ROYAL OHM"; VariantName = "[No Variations]"
Add component (AddParameter): Name = "Manufacturer2"; Value = "HITANO"; VariantName = "[No Variations]"
Add component (AddParameter): Name = "MTBF"; Value = ""; VariantName = "[No Variations]"
Add component (AddParameter): Name = "Order Code1"; Value = "0603SAJ0103T5E"; VariantName = "[No Variations]"
Add component (AddParameter): Name = "Order Code2"; Value = "RC0603JK-10K"; VariantName = "[No Variations]"
Add component (AddParameter): Name = "Type"; Value = ""; VariantName = "[No Variations]"
Add component (AddParameter): Name = "Value"; Value = "1K"; VariantName = "[No Variations]"
Added Component: Designator=R5(J1-0603)
Add component. Clean all parameters for all variants
Add component (AddParameter): Name = "Created"; Value = "05.07.2011"; VariantName = "[No Variations]"
Add component (AddParameter): Name = "Datasheet1"; Value = "97-1"; VariantName = "[No Variations]"
Add component (AddParameter): Name = "Datasheet2"; Value = "97-2"; VariantName = "[No Variations]"
Add component (AddParameter): Name = "Last Revision"; Value = ""; VariantName = "[No Variations]"
Add component (AddParameter): Name = "Manufacturer1"; Value = "ROYAL OHM"; VariantName = "[No Variations]"
Add component (AddParameter): Name = "Manufacturer2"; Value = "HITANO"; VariantName = "[No Variations]"
Add component (AddParameter): Name = "MTBF"; Value = ""; VariantName = "[No Variations]"
Add component (AddParameter): Name = "Order Code1"; Value = "0603SAJ0103T5E"; VariantName = "[No Variations]"
Add component (AddParameter): Name = "Order Code2"; Value = "RC0603JK-10K"; VariantName = "[No Variations]"
Add component (AddParameter): Name = "Type"; Value = ""; VariantName = "[No Variations]"
Add component (AddParameter): Name = "Value"; Value = "1K"; VariantName = "[No Variations]"
Added Component: Designator=R6(HDR1X9)
Add component. Clean all parameters for all variants
Added Component: Designator=R7(J1-0603)
Add component. Clean all parameters for all variants
Add component (AddParameter): Name = "Created"; Value = "05.07.2011"; VariantName = "[No Variations]"
Add component (AddParameter): Name = "Datasheet1"; Value = "97-1"; VariantName = "[No Variations]"
Add component (AddParameter): Name = "Datasheet2"; Value = "97-2"; VariantName = "[No Variations]"
Add component (AddParameter): Name = "Last Revision"; Value = ""; VariantName = "[No Variations]"
Add component (AddParameter): Name = "Manufacturer1"; Value = "ROYAL OHM"; VariantName = "[No Variations]"
Add component (AddParameter): Name = "Manufacturer2"; Value = "HITANO"; VariantName = "[No Variations]"
Add component (AddParameter): Name = "MTBF"; Value = ""; VariantName = "[No Variations]"
Add component (AddParameter): Name = "Order Code1"; Value = "0603SAJ0103T5E"; VariantName = "[No Variations]"
Add component (AddParameter): Name = "Order Code2"; Value = "RC0603JK-10K"; VariantName = "[No Variations]"
Add component (AddParameter): Name = "Type"; Value = ""; VariantName = "[No Variations]"
Add component (AddParameter): Name = "Value"; Value = "1K"; VariantName = "[No Variations]"
Added Component: Designator=R8(J1-0603)
Add component. Clean all parameters for all variants
Add component (AddParameter): Name = "Created"; Value = "05.07.2011"; VariantName = "[No Variations]"
Add component (AddParameter): Name = "Datasheet1"; Value = "97-1"; VariantName = "[No Variations]"
Add component (AddParameter): Name = "Datasheet2"; Value = "97-2"; VariantName = "[No Variations]"
Add component (AddParameter): Name = "Last Revision"; Value = ""; VariantName = "[No Variations]"
Add component (AddParameter): Name = "Manufacturer1"; Value = "ROYAL OHM"; VariantName = "[No Variations]"
Add component (AddParameter): Name = "Manufacturer2"; Value = "HITANO"; VariantName = "[No Variations]"
Add component (AddParameter): Name = "MTBF"; Value = ""; VariantName = "[No Variations]"
Add component (AddParameter): Name = "Order Code1"; Value = "0603SAJ0103T5E"; VariantName = "[No Variations]"
Add component (AddParameter): Name = "Order Code2"; Value = "RC0603JK-10K"; VariantName = "[No Variations]"
Add component (AddParameter): Name = "Type"; Value = ""; VariantName = "[No Variations]"
Add component (AddParameter): Name = "Value"; Value = "1K"; VariantName = "[No Variations]"
Added Component: Designator=R9(J1-0603)
Add component. Clean all parameters for all variants
Add component (AddParameter): Name = "Created"; Value = "05.07.2011"; VariantName = "[No Variations]"
Add component (AddParameter): Name = "Datasheet1"; Value = "97-1"; VariantName = "[No Variations]"
Add component (AddParameter): Name = "Datasheet2"; Value = "97-2"; VariantName = "[No Variations]"
Add component (AddParameter): Name = "Last Revision"; Value = ""; VariantName = "[No Variations]"
Add component (AddParameter): Name = "Manufacturer1"; Value = "ROYAL OHM"; VariantName = "[No Variations]"
Add component (AddParameter): Name = "Manufacturer2"; Value = "HITANO"; VariantName = "[No Variations]"
Add component (AddParameter): Name = "MTBF"; Value = ""; VariantName = "[No Variations]"
Add component (AddParameter): Name = "Order Code1"; Value = "0603SAJ0103T5E"; VariantName = "[No Variations]"
Add component (AddParameter): Name = "Order Code2"; Value = "RC0603JK-10K"; VariantName = "[No Variations]"
Add component (AddParameter): Name = "Type"; Value = ""; VariantName = "[No Variations]"
Add component (AddParameter): Name = "Value"; Value = "1K"; VariantName = "[No Variations]"
Added Component: Designator=R10(HDR1X9)
Add component. Clean all parameters for all variants
Added Component: Designator=R11(J1-0603)
Add component. Clean all parameters for all variants
Add component (AddParameter): Name = "Created"; Value = "05.07.2011"; VariantName = "[No Variations]"
Add component (AddParameter): Name = "Datasheet1"; Value = "97-1"; VariantName = "[No Variations]"
Add component (AddParameter): Name = "Datasheet2"; Value = "97-2"; VariantName = "[No Variations]"
Add component (AddParameter): Name = "Last Revision"; Value = ""; VariantName = "[No Variations]"
Add component (AddParameter): Name = "Manufacturer1"; Value = "ROYAL OHM"; VariantName = "[No Variations]"
Add component (AddParameter): Name = "Manufacturer2"; Value = "HITANO"; VariantName = "[No Variations]"
Add component (AddParameter): Name = "MTBF"; Value = ""; VariantName = "[No Variations]"
Add component (AddParameter): Name = "Order Code1"; Value = "0603SAJ0103T5E"; VariantName = "[No Variations]"
Add component (AddParameter): Name = "Order Code2"; Value = "RC0603JK-10K"; VariantName = "[No Variations]"
Add component (AddParameter): Name = "Type"; Value = ""; VariantName = "[No Variations]"
Add component (AddParameter): Name = "Value"; Value = "1K"; VariantName = "[No Variations]"
Added Component: Designator=R12(J1-0603)
Add component. Clean all parameters for all variants
Add component (AddParameter): Name = "Created"; Value = "05.07.2011"; VariantName = "[No Variations]"
Add component (AddParameter): Name = "Datasheet1"; Value = "97-1"; VariantName = "[No Variations]"
Add component (AddParameter): Name = "Datasheet2"; Value = "97-2"; VariantName = "[No Variations]"
Add component (AddParameter): Name = "Last Revision"; Value = ""; VariantName = "[No Variations]"
Add component (AddParameter): Name = "Manufacturer1"; Value = "ROYAL OHM"; VariantName = "[No Variations]"
Add component (AddParameter): Name = "Manufacturer2"; Value = "HITANO"; VariantName = "[No Variations]"
Add component (AddParameter): Name = "MTBF"; Value = ""; VariantName = "[No Variations]"
Add component (AddParameter): Name = "Order Code1"; Value = "0603SAJ0103T5E"; VariantName = "[No Variations]"
Add component (AddParameter): Name = "Order Code2"; Value = "RC0603JK-10K"; VariantName = "[No Variations]"
Add component (AddParameter): Name = "Type"; Value = ""; VariantName = "[No Variations]"
Add component (AddParameter): Name = "Value"; Value = "1K"; VariantName = "[No Variations]"
Added Component: Designator=R13(J1-0603)
Add component. Clean all parameters for all variants
Add component (AddParameter): Name = "Created"; Value = "05.07.2011"; VariantName = "[No Variations]"
Add component (AddParameter): Name = "Datasheet1"; Value = "97-1"; VariantName = "[No Variations]"
Add component (AddParameter): Name = "Datasheet2"; Value = "97-2"; VariantName = "[No Variations]"
Add component (AddParameter): Name = "Last Revision"; Value = ""; VariantName = "[No Variations]"
Add component (AddParameter): Name = "Manufacturer1"; Value = "ROYAL OHM"; VariantName = "[No Variations]"
Add component (AddParameter): Name = "Manufacturer2"; Value = "HITANO"; VariantName = "[No Variations]"
Add component (AddParameter): Name = "MTBF"; Value = ""; VariantName = "[No Variations]"
Add component (AddParameter): Name = "Order Code1"; Value = "0603SAJ0103T5E"; VariantName = "[No Variations]"
Add component (AddParameter): Name = "Order Code2"; Value = "RC0603JK-10K"; VariantName = "[No Variations]"
Add component (AddParameter): Name = "Type"; Value = ""; VariantName = "[No Variations]"
Add component (AddParameter): Name = "Value"; Value = "1K"; VariantName = "[No Variations]"
Added Component: Designator=R14(J1-0603)
Add component. Clean all parameters for all variants
Add component (AddParameter): Name = "Created"; Value = "05.07.2011"; VariantName = "[No Variations]"
Add component (AddParameter): Name = "Datasheet1"; Value = "97-1"; VariantName = "[No Variations]"
Add component (AddParameter): Name = "Datasheet2"; Value = "97-2"; VariantName = "[No Variations]"
Add component (AddParameter): Name = "Last Revision"; Value = ""; VariantName = "[No Variations]"
Add component (AddParameter): Name = "Manufacturer1"; Value = "ROYAL OHM"; VariantName = "[No Variations]"
Add component (AddParameter): Name = "Manufacturer2"; Value = "HITANO"; VariantName = "[No Variations]"
Add component (AddParameter): Name = "MTBF"; Value = ""; VariantName = "[No Variations]"
Add component (AddParameter): Name = "Order Code1"; Value = "0603SAJ0103T5E"; VariantName = "[No Variations]"
Add component (AddParameter): Name = "Order Code2"; Value = "RC0603JK-10K"; VariantName = "[No Variations]"
Add component (AddParameter): Name = "Type"; Value = ""; VariantName = "[No Variations]"
Add component (AddParameter): Name = "Value"; Value = "1K"; VariantName = "[No Variations]"
Added Component: Designator=R15(J1-0603)
Add component. Clean all parameters for all variants
Add component (AddParameter): Name = "Created"; Value = "05.07.2011"; VariantName = "[No Variations]"
Add component (AddParameter): Name = "Datasheet1"; Value = "97-1"; VariantName = "[No Variations]"
Add component (AddParameter): Name = "Datasheet2"; Value = "97-2"; VariantName = "[No Variations]"
Add component (AddParameter): Name = "Last Revision"; Value = ""; VariantName = "[No Variations]"
Add component (AddParameter): Name = "Manufacturer1"; Value = "ROYAL OHM"; VariantName = "[No Variations]"
Add component (AddParameter): Name = "Manufacturer2"; Value = "HITANO"; VariantName = "[No Variations]"
Add component (AddParameter): Name = "MTBF"; Value = ""; VariantName = "[No Variations]"
Add component (AddParameter): Name = "Order Code1"; Value = "0603SAJ0103T5E"; VariantName = "[No Variations]"
Add component (AddParameter): Name = "Order Code2"; Value = "RC0603JK-10K"; VariantName = "[No Variations]"
Add component (AddParameter): Name = "Type"; Value = ""; VariantName = "[No Variations]"
Add component (AddParameter): Name = "Value"; Value = "1K"; VariantName = "[No Variations]"
Added Component: Designator=R16(J1-0603)
Add component. Clean all parameters for all variants
Add component (AddParameter): Name = "Created"; Value = "05.07.2011"; VariantName = "[No Variations]"
Add component (AddParameter): Name = "Datasheet1"; Value = "97-1"; VariantName = "[No Variations]"
Add component (AddParameter): Name = "Datasheet2"; Value = "97-2"; VariantName = "[No Variations]"
Add component (AddParameter): Name = "Last Revision"; Value = ""; VariantName = "[No Variations]"
Add component (AddParameter): Name = "Manufacturer1"; Value = "ROYAL OHM"; VariantName = "[No Variations]"
Add component (AddParameter): Name = "Manufacturer2"; Value = "HITANO"; VariantName = "[No Variations]"
Add component (AddParameter): Name = "MTBF"; Value = ""; VariantName = "[No Variations]"
Add component (AddParameter): Name = "Order Code1"; Value = "0603SAJ0103T5E"; VariantName = "[No Variations]"
Add component (AddParameter): Name = "Order Code2"; Value = "RC0603JK-10K"; VariantName = "[No Variations]"
Add component (AddParameter): Name = "Type"; Value = ""; VariantName = "[No Variations]"
Add component (AddParameter): Name = "Value"; Value = "1K"; VariantName = "[No Variations]"
Added Component: Designator=R17(J1-0603)
Add component. Clean all parameters for all variants
Add component (AddParameter): Name = "Created"; Value = "05.07.2011"; VariantName = "[No Variations]"
Add component (AddParameter): Name = "Datasheet1"; Value = "97-1"; VariantName = "[No Variations]"
Add component (AddParameter): Name = "Datasheet2"; Value = "97-2"; VariantName = "[No Variations]"
Add component (AddParameter): Name = "Last Revision"; Value = ""; VariantName = "[No Variations]"
Add component (AddParameter): Name = "Manufacturer1"; Value = "ROYAL OHM"; VariantName = "[No Variations]"
Add component (AddParameter): Name = "Manufacturer2"; Value = "HITANO"; VariantName = "[No Variations]"
Add component (AddParameter): Name = "MTBF"; Value = ""; VariantName = "[No Variations]"
Add component (AddParameter): Name = "Order Code1"; Value = "0603SAJ0103T5E"; VariantName = "[No Variations]"
Add component (AddParameter): Name = "Order Code2"; Value = "RC0603JK-10K"; VariantName = "[No Variations]"
Add component (AddParameter): Name = "Type"; Value = ""; VariantName = "[No Variations]"
Add component (AddParameter): Name = "Value"; Value = "1K"; VariantName = "[No Variations]"
Added Component: Designator=R18(J1-0603)
Add component. Clean all parameters for all variants
Add component (AddParameter): Name = "Created"; Value = "05.07.2011"; VariantName = "[No Variations]"
Add component (AddParameter): Name = "Datasheet1"; Value = "97-1"; VariantName = "[No Variations]"
Add component (AddParameter): Name = "Datasheet2"; Value = "97-2"; VariantName = "[No Variations]"
Add component (AddParameter): Name = "Last Revision"; Value = ""; VariantName = "[No Variations]"
Add component (AddParameter): Name = "Manufacturer1"; Value = "ROYAL OHM"; VariantName = "[No Variations]"
Add component (AddParameter): Name = "Manufacturer2"; Value = "HITANO"; VariantName = "[No Variations]"
Add component (AddParameter): Name = "MTBF"; Value = ""; VariantName = "[No Variations]"
Add component (AddParameter): Name = "Order Code1"; Value = "0603SAJ0103T5E"; VariantName = "[No Variations]"
Add component (AddParameter): Name = "Order Code2"; Value = "RC0603JK-10K"; VariantName = "[No Variations]"
Add component (AddParameter): Name = "Type"; Value = ""; VariantName = "[No Variations]"
Add component (AddParameter): Name = "Value"; Value = "1K"; VariantName = "[No Variations]"
Added Component: Designator=R19(J1-0603)
Add component. Clean all parameters for all variants
Add component (AddParameter): Name = "Created"; Value = "05.07.2011"; VariantName = "[No Variations]"
Add component (AddParameter): Name = "Datasheet1"; Value = "97-1"; VariantName = "[No Variations]"
Add component (AddParameter): Name = "Datasheet2"; Value = "97-2"; VariantName = "[No Variations]"
Add component (AddParameter): Name = "Last Revision"; Value = ""; VariantName = "[No Variations]"
Add component (AddParameter): Name = "Manufacturer1"; Value = "ROYAL OHM"; VariantName = "[No Variations]"
Add component (AddParameter): Name = "Manufacturer2"; Value = "HITANO"; VariantName = "[No Variations]"
Add component (AddParameter): Name = "MTBF"; Value = ""; VariantName = "[No Variations]"
Add component (AddParameter): Name = "Order Code1"; Value = "0603SAJ0103T5E"; VariantName = "[No Variations]"
Add component (AddParameter): Name = "Order Code2"; Value = "RC0603JK-10K"; VariantName = "[No Variations]"
Add component (AddParameter): Name = "Type"; Value = ""; VariantName = "[No Variations]"
Add component (AddParameter): Name = "Value"; Value = "1K"; VariantName = "[No Variations]"
Added Component: Designator=R20(J1-0603)
Add component. Clean all parameters for all variants
Add component (AddParameter): Name = "Created"; Value = "05.07.2011"; VariantName = "[No Variations]"
Add component (AddParameter): Name = "Datasheet1"; Value = "97-1"; VariantName = "[No Variations]"
Add component (AddParameter): Name = "Datasheet2"; Value = "97-2"; VariantName = "[No Variations]"
Add component (AddParameter): Name = "Last Revision"; Value = ""; VariantName = "[No Variations]"
Add component (AddParameter): Name = "Manufacturer1"; Value = "ROYAL OHM"; VariantName = "[No Variations]"
Add component (AddParameter): Name = "Manufacturer2"; Value = "HITANO"; VariantName = "[No Variations]"
Add component (AddParameter): Name = "MTBF"; Value = ""; VariantName = "[No Variations]"
Add component (AddParameter): Name = "Order Code1"; Value = "0603SAJ0103T5E"; VariantName = "[No Variations]"
Add component (AddParameter): Name = "Order Code2"; Value = "RC0603JK-10K"; VariantName = "[No Variations]"
Add component (AddParameter): Name = "Type"; Value = ""; VariantName = "[No Variations]"
Add component (AddParameter): Name = "Value"; Value = "1K"; VariantName = "[No Variations]"
Added Component: Designator=R21(J1-0603)
Add component. Clean all parameters for all variants
Add component (AddParameter): Name = "Created"; Value = "05.07.2011"; VariantName = "[No Variations]"
Add component (AddParameter): Name = "Datasheet1"; Value = "97-1"; VariantName = "[No Variations]"
Add component (AddParameter): Name = "Datasheet2"; Value = "97-2"; VariantName = "[No Variations]"
Add component (AddParameter): Name = "Last Revision"; Value = ""; VariantName = "[No Variations]"
Add component (AddParameter): Name = "Manufacturer1"; Value = "ROYAL OHM"; VariantName = "[No Variations]"
Add component (AddParameter): Name = "Manufacturer2"; Value = "HITANO"; VariantName = "[No Variations]"
Add component (AddParameter): Name = "MTBF"; Value = ""; VariantName = "[No Variations]"
Add component (AddParameter): Name = "Order Code1"; Value = "0603SAJ0103T5E"; VariantName = "[No Variations]"
Add component (AddParameter): Name = "Order Code2"; Value = "RC0603JK-10K"; VariantName = "[No Variations]"
Add component (AddParameter): Name = "Type"; Value = ""; VariantName = "[No Variations]"
Add component (AddParameter): Name = "Value"; Value = "1K"; VariantName = "[No Variations]"
Added Component: Designator=R22(J1-0603)
Add component. Clean all parameters for all variants
Add component (AddParameter): Name = "Created"; Value = "05.07.2011"; VariantName = "[No Variations]"
Add component (AddParameter): Name = "Datasheet1"; Value = "97-1"; VariantName = "[No Variations]"
Add component (AddParameter): Name = "Datasheet2"; Value = "97-2"; VariantName = "[No Variations]"
Add component (AddParameter): Name = "Last Revision"; Value = ""; VariantName = "[No Variations]"
Add component (AddParameter): Name = "Manufacturer1"; Value = "ROYAL OHM"; VariantName = "[No Variations]"
Add component (AddParameter): Name = "Manufacturer2"; Value = "HITANO"; VariantName = "[No Variations]"
Add component (AddParameter): Name = "MTBF"; Value = ""; VariantName = "[No Variations]"
Add component (AddParameter): Name = "Order Code1"; Value = "0603SAJ0103T5E"; VariantName = "[No Variations]"
Add component (AddParameter): Name = "Order Code2"; Value = "RC0603JK-10K"; VariantName = "[No Variations]"
Add component (AddParameter): Name = "Type"; Value = ""; VariantName = "[No Variations]"
Add component (AddParameter): Name = "Value"; Value = "1K"; VariantName = "[No Variations]"
Added Component: Designator=R23(J1-0603)
Add component. Clean all parameters for all variants
Add component (AddParameter): Name = "Created"; Value = "05.07.2011"; VariantName = "[No Variations]"
Add component (AddParameter): Name = "Datasheet1"; Value = "97-1"; VariantName = "[No Variations]"
Add component (AddParameter): Name = "Datasheet2"; Value = "97-2"; VariantName = "[No Variations]"
Add component (AddParameter): Name = "Last Revision"; Value = ""; VariantName = "[No Variations]"
Add component (AddParameter): Name = "Manufacturer1"; Value = "ROYAL OHM"; VariantName = "[No Variations]"
Add component (AddParameter): Name = "Manufacturer2"; Value = "HITANO"; VariantName = "[No Variations]"
Add component (AddParameter): Name = "MTBF"; Value = ""; VariantName = "[No Variations]"
Add component (AddParameter): Name = "Order Code1"; Value = "0603SAJ0103T5E"; VariantName = "[No Variations]"
Add component (AddParameter): Name = "Order Code2"; Value = "RC0603JK-10K"; VariantName = "[No Variations]"
Add component (AddParameter): Name = "Type"; Value = ""; VariantName = "[No Variations]"
Add component (AddParameter): Name = "Value"; Value = "1K"; VariantName = "[No Variations]"
Added Component: Designator=R24(J1-0603)
Add component. Clean all parameters for all variants
Add component (AddParameter): Name = "Created"; Value = "05.07.2011"; VariantName = "[No Variations]"
Add component (AddParameter): Name = "Datasheet1"; Value = "97-1"; VariantName = "[No Variations]"
Add component (AddParameter): Name = "Datasheet2"; Value = "97-2"; VariantName = "[No Variations]"
Add component (AddParameter): Name = "Last Revision"; Value = ""; VariantName = "[No Variations]"
Add component (AddParameter): Name = "Manufacturer1"; Value = "ROYAL OHM"; VariantName = "[No Variations]"
Add component (AddParameter): Name = "Manufacturer2"; Value = "HITANO"; VariantName = "[No Variations]"
Add component (AddParameter): Name = "MTBF"; Value = ""; VariantName = "[No Variations]"
Add component (AddParameter): Name = "Order Code1"; Value = "0603SAJ0103T5E"; VariantName = "[No Variations]"
Add component (AddParameter): Name = "Order Code2"; Value = "RC0603JK-10K"; VariantName = "[No Variations]"
Add component (AddParameter): Name = "Type"; Value = ""; VariantName = "[No Variations]"
Add component (AddParameter): Name = "Value"; Value = "1K"; VariantName = "[No Variations]"
Added Component: Designator=R25(HDR1X9)
Add component. Clean all parameters for all variants
Added Component: Designator=R26(HDR1X9)
Add component. Clean all parameters for all variants
Added Component: Designator=R27(J1-0603)
Add component. Clean all parameters for all variants
Add component (AddParameter): Name = "Created"; Value = "05.07.2011"; VariantName = "[No Variations]"
Add component (AddParameter): Name = "Datasheet1"; Value = "97-1"; VariantName = "[No Variations]"
Add component (AddParameter): Name = "Datasheet2"; Value = "97-2"; VariantName = "[No Variations]"
Add component (AddParameter): Name = "Last Revision"; Value = ""; VariantName = "[No Variations]"
Add component (AddParameter): Name = "Manufacturer1"; Value = "ROYAL OHM"; VariantName = "[No Variations]"
Add component (AddParameter): Name = "Manufacturer2"; Value = "HITANO"; VariantName = "[No Variations]"
Add component (AddParameter): Name = "MTBF"; Value = ""; VariantName = "[No Variations]"
Add component (AddParameter): Name = "Order Code1"; Value = "0603SAJ0103T5E"; VariantName = "[No Variations]"
Add component (AddParameter): Name = "Order Code2"; Value = "RC0603JK-10K"; VariantName = "[No Variations]"
Add component (AddParameter): Name = "Type"; Value = ""; VariantName = "[No Variations]"
Add component (AddParameter): Name = "Value"; Value = "1K"; VariantName = "[No Variations]"
Added Component: Designator=R28(J1-0603)
Add component. Clean all parameters for all variants
Add component (AddParameter): Name = "Created"; Value = "05.07.2011"; VariantName = "[No Variations]"
Add component (AddParameter): Name = "Datasheet1"; Value = "97-1"; VariantName = "[No Variations]"
Add component (AddParameter): Name = "Datasheet2"; Value = "97-2"; VariantName = "[No Variations]"
Add component (AddParameter): Name = "Last Revision"; Value = ""; VariantName = "[No Variations]"
Add component (AddParameter): Name = "Manufacturer1"; Value = "ROYAL OHM"; VariantName = "[No Variations]"
Add component (AddParameter): Name = "Manufacturer2"; Value = "HITANO"; VariantName = "[No Variations]"
Add component (AddParameter): Name = "MTBF"; Value = ""; VariantName = "[No Variations]"
Add component (AddParameter): Name = "Order Code1"; Value = "0603SAJ0103T5E"; VariantName = "[No Variations]"
Add component (AddParameter): Name = "Order Code2"; Value = "RC0603JK-10K"; VariantName = "[No Variations]"
Add component (AddParameter): Name = "Type"; Value = ""; VariantName = "[No Variations]"
Add component (AddParameter): Name = "Value"; Value = "1K"; VariantName = "[No Variations]"
Added Component: Designator=R29(J1-0603)
Add component. Clean all parameters for all variants
Add component (AddParameter): Name = "Created"; Value = "05.07.2011"; VariantName = "[No Variations]"
Add component (AddParameter): Name = "Datasheet1"; Value = "97-1"; VariantName = "[No Variations]"
Add component (AddParameter): Name = "Datasheet2"; Value = "97-2"; VariantName = "[No Variations]"
Add component (AddParameter): Name = "Last Revision"; Value = ""; VariantName = "[No Variations]"
Add component (AddParameter): Name = "Manufacturer1"; Value = "ROYAL OHM"; VariantName = "[No Variations]"
Add component (AddParameter): Name = "Manufacturer2"; Value = "HITANO"; VariantName = "[No Variations]"
Add component (AddParameter): Name = "MTBF"; Value = ""; VariantName = "[No Variations]"
Add component (AddParameter): Name = "Order Code1"; Value = "0603SAJ0103T5E"; VariantName = "[No Variations]"
Add component (AddParameter): Name = "Order Code2"; Value = "RC0603JK-10K"; VariantName = "[No Variations]"
Add component (AddParameter): Name = "Type"; Value = ""; VariantName = "[No Variations]"
Add component (AddParameter): Name = "Value"; Value = "1K"; VariantName = "[No Variations]"
Added Component: Designator=R30(J1-0603)
Add component. Clean all parameters for all variants
Add component (AddParameter): Name = "Created"; Value = "05.07.2011"; VariantName = "[No Variations]"
Add component (AddParameter): Name = "Datasheet1"; Value = "97-1"; VariantName = "[No Variations]"
Add component (AddParameter): Name = "Datasheet2"; Value = "97-2"; VariantName = "[No Variations]"
Add component (AddParameter): Name = "Last Revision"; Value = ""; VariantName = "[No Variations]"
Add component (AddParameter): Name = "Manufacturer1"; Value = "ROYAL OHM"; VariantName = "[No Variations]"
Add component (AddParameter): Name = "Manufacturer2"; Value = "HITANO"; VariantName = "[No Variations]"
Add component (AddParameter): Name = "MTBF"; Value = ""; VariantName = "[No Variations]"
Add component (AddParameter): Name = "Order Code1"; Value = "0603SAJ0103T5E"; VariantName = "[No Variations]"
Add component (AddParameter): Name = "Order Code2"; Value = "RC0603JK-10K"; VariantName = "[No Variations]"
Add component (AddParameter): Name = "Type"; Value = ""; VariantName = "[No Variations]"
Add component (AddParameter): Name = "Value"; Value = "1K"; VariantName = "[No Variations]"
Added Component: Designator=R31(J1-0603)
Add component. Clean all parameters for all variants
Add component (AddParameter): Name = "Created"; Value = "05.07.2011"; VariantName = "[No Variations]"
Add component (AddParameter): Name = "Datasheet1"; Value = "97-1"; VariantName = "[No Variations]"
Add component (AddParameter): Name = "Datasheet2"; Value = "97-2"; VariantName = "[No Variations]"
Add component (AddParameter): Name = "Last Revision"; Value = ""; VariantName = "[No Variations]"
Add component (AddParameter): Name = "Manufacturer1"; Value = "ROYAL OHM"; VariantName = "[No Variations]"
Add component (AddParameter): Name = "Manufacturer2"; Value = "HITANO"; VariantName = "[No Variations]"
Add component (AddParameter): Name = "MTBF"; Value = ""; VariantName = "[No Variations]"
Add component (AddParameter): Name = "Order Code1"; Value = "0603SAJ0103T5E"; VariantName = "[No Variations]"
Add component (AddParameter): Name = "Order Code2"; Value = "RC0603JK-10K"; VariantName = "[No Variations]"
Add component (AddParameter): Name = "Type"; Value = ""; VariantName = "[No Variations]"
Add component (AddParameter): Name = "Value"; Value = "1K"; VariantName = "[No Variations]"
Added Component: Designator=R32(J1-0603)
Add component. Clean all parameters for all variants
Add component (AddParameter): Name = "Created"; Value = "05.07.2011"; VariantName = "[No Variations]"
Add component (AddParameter): Name = "Datasheet1"; Value = "97-1"; VariantName = "[No Variations]"
Add component (AddParameter): Name = "Datasheet2"; Value = "97-2"; VariantName = "[No Variations]"
Add component (AddParameter): Name = "Last Revision"; Value = ""; VariantName = "[No Variations]"
Add component (AddParameter): Name = "Manufacturer1"; Value = "ROYAL OHM"; VariantName = "[No Variations]"
Add component (AddParameter): Name = "Manufacturer2"; Value = "HITANO"; VariantName = "[No Variations]"
Add component (AddParameter): Name = "MTBF"; Value = ""; VariantName = "[No Variations]"
Add component (AddParameter): Name = "Order Code1"; Value = "0603SAJ0103T5E"; VariantName = "[No Variations]"
Add component (AddParameter): Name = "Order Code2"; Value = "RC0603JK-10K"; VariantName = "[No Variations]"
Add component (AddParameter): Name = "Type"; Value = ""; VariantName = "[No Variations]"
Add component (AddParameter): Name = "Value"; Value = "1K"; VariantName = "[No Variations]"
Added Component: Designator=R33(J1-0603)
Add component. Clean all parameters for all variants
Add component (AddParameter): Name = "Created"; Value = "05.07.2011"; VariantName = "[No Variations]"
Add component (AddParameter): Name = "Datasheet1"; Value = "97-1"; VariantName = "[No Variations]"
Add component (AddParameter): Name = "Datasheet2"; Value = "97-2"; VariantName = "[No Variations]"
Add component (AddParameter): Name = "Last Revision"; Value = ""; VariantName = "[No Variations]"
Add component (AddParameter): Name = "Manufacturer1"; Value = "ROYAL OHM"; VariantName = "[No Variations]"
Add component (AddParameter): Name = "Manufacturer2"; Value = "HITANO"; VariantName = "[No Variations]"
Add component (AddParameter): Name = "MTBF"; Value = ""; VariantName = "[No Variations]"
Add component (AddParameter): Name = "Order Code1"; Value = "0603SAJ0103T5E"; VariantName = "[No Variations]"
Add component (AddParameter): Name = "Order Code2"; Value = "RC0603JK-10K"; VariantName = "[No Variations]"
Add component (AddParameter): Name = "Type"; Value = ""; VariantName = "[No Variations]"
Add component (AddParameter): Name = "Value"; Value = "1K"; VariantName = "[No Variations]"
Added Component: Designator=R34(J1-0603)
Add component. Clean all parameters for all variants
Add component (AddParameter): Name = "Created"; Value = "05.07.2011"; VariantName = "[No Variations]"
Add component (AddParameter): Name = "Datasheet1"; Value = "97-1"; VariantName = "[No Variations]"
Add component (AddParameter): Name = "Datasheet2"; Value = "97-2"; VariantName = "[No Variations]"
Add component (AddParameter): Name = "Last Revision"; Value = ""; VariantName = "[No Variations]"
Add component (AddParameter): Name = "Manufacturer1"; Value = "ROYAL OHM"; VariantName = "[No Variations]"
Add component (AddParameter): Name = "Manufacturer2"; Value = "HITANO"; VariantName = "[No Variations]"
Add component (AddParameter): Name = "MTBF"; Value = ""; VariantName = "[No Variations]"
Add component (AddParameter): Name = "Order Code1"; Value = "0603SAJ0103T5E"; VariantName = "[No Variations]"
Add component (AddParameter): Name = "Order Code2"; Value = "RC0603JK-10K"; VariantName = "[No Variations]"
Add component (AddParameter): Name = "Type"; Value = ""; VariantName = "[No Variations]"
Add component (AddParameter): Name = "Value"; Value = "1K"; VariantName = "[No Variations]"
Added Component: Designator=R35(J1-0603)
Add component. Clean all parameters for all variants
Add component (AddParameter): Name = "Created"; Value = "05.07.2011"; VariantName = "[No Variations]"
Add component (AddParameter): Name = "Datasheet1"; Value = "97-1"; VariantName = "[No Variations]"
Add component (AddParameter): Name = "Datasheet2"; Value = "97-2"; VariantName = "[No Variations]"
Add component (AddParameter): Name = "Last Revision"; Value = ""; VariantName = "[No Variations]"
Add component (AddParameter): Name = "Manufacturer1"; Value = "ROYAL OHM"; VariantName = "[No Variations]"
Add component (AddParameter): Name = "Manufacturer2"; Value = "HITANO"; VariantName = "[No Variations]"
Add component (AddParameter): Name = "MTBF"; Value = ""; VariantName = "[No Variations]"
Add component (AddParameter): Name = "Order Code1"; Value = "0603SAJ0103T5E"; VariantName = "[No Variations]"
Add component (AddParameter): Name = "Order Code2"; Value = "RC0603JK-10K"; VariantName = "[No Variations]"
Add component (AddParameter): Name = "Type"; Value = ""; VariantName = "[No Variations]"
Add component (AddParameter): Name = "Value"; Value = "1K"; VariantName = "[No Variations]"
Added Component: Designator=R36(J1-0603)
Add component. Clean all parameters for all variants
Add component (AddParameter): Name = "Created"; Value = "05.07.2011"; VariantName = "[No Variations]"
Add component (AddParameter): Name = "Datasheet1"; Value = "97-1"; VariantName = "[No Variations]"
Add component (AddParameter): Name = "Datasheet2"; Value = "97-2"; VariantName = "[No Variations]"
Add component (AddParameter): Name = "Last Revision"; Value = ""; VariantName = "[No Variations]"
Add component (AddParameter): Name = "Manufacturer1"; Value = "ROYAL OHM"; VariantName = "[No Variations]"
Add component (AddParameter): Name = "Manufacturer2"; Value = "HITANO"; VariantName = "[No Variations]"
Add component (AddParameter): Name = "MTBF"; Value = ""; VariantName = "[No Variations]"
Add component (AddParameter): Name = "Order Code1"; Value = "0603SAJ0103T5E"; VariantName = "[No Variations]"
Add component (AddParameter): Name = "Order Code2"; Value = "RC0603JK-10K"; VariantName = "[No Variations]"
Add component (AddParameter): Name = "Type"; Value = ""; VariantName = "[No Variations]"
Add component (AddParameter): Name = "Value"; Value = "1K"; VariantName = "[No Variations]"
Added Component: Designator=R37(HDR1X9)
Add component. Clean all parameters for all variants
Added Component: Designator=U1(DIP-16)
Add component. Clean all parameters for all variants
Added Component: Designator=U2(DIP-16)
Add component. Clean all parameters for all variants
Added Component: Designator=U3(DIP-16)
Add component. Clean all parameters for all variants
Added Component: Designator=U4(DIP-16)
Add component. Clean all parameters for all variants
Added Component: Designator=U5(DIP-16)
Add component. Clean all parameters for all variants
Added Component: Designator=U6(DIP-16)
Add component. Clean all parameters for all variants
Added Component: Designator=U7(DIP-16)
Add component. Clean all parameters for all variants
Added Component: Designator=U8(DIP-16)
Add component. Clean all parameters for all variants
Added Pin To Net: NetName=A0_MUX_1 Pin=R37-4
Added Net: Name=A0_MUX_1
Added Pin To Net: NetName=A0_MUX_2 Pin=R37-7
Added Net: Name=A0_MUX_2
Added Pin To Net: NetName=A1_MUX_1 Pin=R37-3
Added Net: Name=A1_MUX_1
Added Pin To Net: NetName=A1_MUX_2 Pin=R37-6
Added Net: Name=A1_MUX_2
Added Pin To Net: NetName=A2_MUX_1 Pin=R37-2
Added Net: Name=A2_MUX_1
Added Pin To Net: NetName=A2_MUX_2 Pin=R37-5
Added Net: Name=A2_MUX_2
Added Pin To Net: NetName=GND Pin=P1-8
Added Pin To Net: NetName=GND Pin=U1-9
Added Pin To Net: NetName=GND Pin=U1-12
Added Pin To Net: NetName=GND Pin=U1-13
Added Pin To Net: NetName=GND Pin=U1-16
Added Pin To Net: NetName=GND Pin=U2-9
Added Pin To Net: NetName=GND Pin=U2-12
Added Pin To Net: NetName=GND Pin=U2-13
Added Pin To Net: NetName=GND Pin=U2-16
Added Pin To Net: NetName=GND Pin=U3-9
Added Pin To Net: NetName=GND Pin=U3-12
Added Pin To Net: NetName=GND Pin=U3-13
Added Pin To Net: NetName=GND Pin=U3-16
Added Pin To Net: NetName=GND Pin=U4-9
Added Pin To Net: NetName=GND Pin=U4-12
Added Pin To Net: NetName=GND Pin=U4-13
Added Pin To Net: NetName=GND Pin=U4-16
Added Pin To Net: NetName=GND Pin=U5-9
Added Pin To Net: NetName=GND Pin=U5-12
Added Pin To Net: NetName=GND Pin=U5-13
Added Pin To Net: NetName=GND Pin=U5-16
Added Pin To Net: NetName=GND Pin=U6-9
Added Pin To Net: NetName=GND Pin=U6-12
Added Pin To Net: NetName=GND Pin=U6-13
Added Pin To Net: NetName=GND Pin=U6-16
Added Pin To Net: NetName=GND Pin=U7-9
Added Pin To Net: NetName=GND Pin=U7-12
Added Pin To Net: NetName=GND Pin=U7-13
Added Pin To Net: NetName=GND Pin=U7-16
Added Pin To Net: NetName=GND Pin=U8-9
Added Pin To Net: NetName=GND Pin=U8-12
Added Pin To Net: NetName=GND Pin=U8-13
Added Pin To Net: NetName=GND Pin=U8-16
Added Net: Name=GND
Added Pin To Net: NetName=INTA_MUX_1 Pin=P1-1
Added Net: Name=INTA_MUX_1
Added Pin To Net: NetName=INTA_MUX_2 Pin=P1-2
Added Net: Name=INTA_MUX_2
Added Pin To Net: NetName=INTB_MUX_1 Pin=P1-3
Added Net: Name=INTB_MUX_1
Added Pin To Net: NetName=INTB_MUX_2 Pin=P1-4
Added Net: Name=INTB_MUX_2
Added Pin To Net: NetName=NetR1_1 Pin=R1-1
Added Pin To Net: NetName=NetR1_1 Pin=U1-1
Added Net: Name=NetR1_1
Added Pin To Net: NetName=NetR2_1 Pin=R2-1
Added Pin To Net: NetName=NetR2_1 Pin=U2-1
Added Net: Name=NetR2_1
Added Pin To Net: NetName=NetR3_1 Pin=R3-1
Added Pin To Net: NetName=NetR3_1 Pin=U1-4
Added Net: Name=NetR3_1
Added Pin To Net: NetName=NetR4_1 Pin=R4-1
Added Pin To Net: NetName=NetR4_1 Pin=U2-4
Added Net: Name=NetR4_1
Added Pin To Net: NetName=NetR5_1 Pin=R5-1
Added Pin To Net: NetName=NetR5_1 Pin=U1-5
Added Net: Name=NetR5_1
Added Pin To Net: NetName=NetR7_1 Pin=R7-1
Added Pin To Net: NetName=NetR7_1 Pin=U2-5
Added Net: Name=NetR7_1
Added Pin To Net: NetName=NetR8_1 Pin=R8-1
Added Pin To Net: NetName=NetR8_1 Pin=U2-8
Added Net: Name=NetR8_1
Added Pin To Net: NetName=NetR9_1 Pin=R9-1
Added Pin To Net: NetName=NetR9_1 Pin=U1-8
Added Net: Name=NetR9_1
Added Pin To Net: NetName=NetR11_1 Pin=R11-1
Added Pin To Net: NetName=NetR11_1 Pin=U3-1
Added Net: Name=NetR11_1
Added Pin To Net: NetName=NetR12_1 Pin=R12-1
Added Pin To Net: NetName=NetR12_1 Pin=U4-1
Added Net: Name=NetR12_1
Added Pin To Net: NetName=NetR13_1 Pin=R13-1
Added Pin To Net: NetName=NetR13_1 Pin=U3-4
Added Net: Name=NetR13_1
Added Pin To Net: NetName=NetR14_1 Pin=R14-1
Added Pin To Net: NetName=NetR14_1 Pin=U4-4
Added Net: Name=NetR14_1
Added Pin To Net: NetName=NetR15_1 Pin=R15-1
Added Pin To Net: NetName=NetR15_1 Pin=U3-5
Added Net: Name=NetR15_1
Added Pin To Net: NetName=NetR16_1 Pin=R16-1
Added Pin To Net: NetName=NetR16_1 Pin=U4-5
Added Net: Name=NetR16_1
Added Pin To Net: NetName=NetR17_1 Pin=R17-1
Added Pin To Net: NetName=NetR17_1 Pin=U3-8
Added Net: Name=NetR17_1
Added Pin To Net: NetName=NetR18_1 Pin=R18-1
Added Pin To Net: NetName=NetR18_1 Pin=U4-8
Added Net: Name=NetR18_1
Added Pin To Net: NetName=NetR19_1 Pin=R19-1
Added Pin To Net: NetName=NetR19_1 Pin=U5-1
Added Net: Name=NetR19_1
Added Pin To Net: NetName=NetR20_1 Pin=R20-1
Added Pin To Net: NetName=NetR20_1 Pin=U6-1
Added Net: Name=NetR20_1
Added Pin To Net: NetName=NetR21_1 Pin=R21-1
Added Pin To Net: NetName=NetR21_1 Pin=U5-4
Added Net: Name=NetR21_1
Added Pin To Net: NetName=NetR22_1 Pin=R22-1
Added Pin To Net: NetName=NetR22_1 Pin=U6-4
Added Net: Name=NetR22_1
Added Pin To Net: NetName=NetR23_1 Pin=R23-1
Added Pin To Net: NetName=NetR23_1 Pin=U5-5
Added Net: Name=NetR23_1
Added Pin To Net: NetName=NetR24_1 Pin=R24-1
Added Pin To Net: NetName=NetR24_1 Pin=U6-5
Added Net: Name=NetR24_1
Added Pin To Net: NetName=NetR27_1 Pin=R27-1
Added Pin To Net: NetName=NetR27_1 Pin=U5-8
Added Net: Name=NetR27_1
Added Pin To Net: NetName=NetR28_1 Pin=R28-1
Added Pin To Net: NetName=NetR28_1 Pin=U6-8
Added Net: Name=NetR28_1
Added Pin To Net: NetName=NetR29_1 Pin=R29-1
Added Pin To Net: NetName=NetR29_1 Pin=U7-1
Added Net: Name=NetR29_1
Added Pin To Net: NetName=NetR30_1 Pin=R30-1
Added Pin To Net: NetName=NetR30_1 Pin=U8-1
Added Net: Name=NetR30_1
Added Pin To Net: NetName=NetR31_1 Pin=R31-1
Added Pin To Net: NetName=NetR31_1 Pin=U7-4
Added Net: Name=NetR31_1
Added Pin To Net: NetName=NetR32_1 Pin=R32-1
Added Pin To Net: NetName=NetR32_1 Pin=U8-4
Added Net: Name=NetR32_1
Added Pin To Net: NetName=NetR33_1 Pin=R33-1
Added Pin To Net: NetName=NetR33_1 Pin=U7-5
Added Net: Name=NetR33_1
Added Pin To Net: NetName=NetR34_1 Pin=R34-1
Added Pin To Net: NetName=NetR34_1 Pin=U8-5
Added Net: Name=NetR34_1
Added Pin To Net: NetName=NetR35_1 Pin=R35-1
Added Pin To Net: NetName=NetR35_1 Pin=U7-8
Added Net: Name=NetR35_1
Added Pin To Net: NetName=NetR36_1 Pin=R36-1
Added Pin To Net: NetName=NetR36_1 Pin=U8-8
Added Net: Name=NetR36_1
Added Pin To Net: NetName=SCL Pin=P1-5
Added Net: Name=SCL
Added Pin To Net: NetName=SDA Pin=P1-7
Added Net: Name=SDA
Added Pin To Net: NetName=VCC Pin=P1-6
Added Pin To Net: NetName=VCC Pin=R6-1
Added Pin To Net: NetName=VCC Pin=R10-1
Added Pin To Net: NetName=VCC Pin=R25-1
Added Pin To Net: NetName=VCC Pin=R26-1
Added Pin To Net: NetName=VCC Pin=R37-1
Added Net: Name=VCC
Added Pin To Net: NetName=X1_GND Pin=U1-2
Added Net: Name=X1_GND
Added Pin To Net: NetName=X1_SENSE Pin=R6-2
Added Pin To Net: NetName=X1_SENSE Pin=U1-15
Added Net: Name=X1_SENSE
Added Pin To Net: NetName=X1 Pin=R1-2
Added Net: Name=X1
Added Pin To Net: NetName=X2_GND Pin=U1-3
Added Net: Name=X2_GND
Added Pin To Net: NetName=X2_SENSE Pin=U1-14
Added Net: Name=X2_SENSE
Added Pin To Net: NetName=X2 Pin=R3-2
Added Net: Name=X2
Added Pin To Net: NetName=X3_GND Pin=U1-6
Added Net: Name=X3_GND
Added Pin To Net: NetName=X3_SENSE Pin=U1-11
Added Net: Name=X3_SENSE
Added Pin To Net: NetName=X3 Pin=R5-2
Added Net: Name=X3
Added Pin To Net: NetName=X4_GND Pin=U1-7
Added Net: Name=X4_GND
Added Pin To Net: NetName=X4_SENSE Pin=R6-5
Added Pin To Net: NetName=X4_SENSE Pin=U1-10
Added Net: Name=X4_SENSE
Added Pin To Net: NetName=X4 Pin=R9-2
Added Net: Name=X4
Added Pin To Net: NetName=X5_GND Pin=U3-2
Added Net: Name=X5_GND
Added Pin To Net: NetName=X5_SENSE Pin=R6-6
Added Pin To Net: NetName=X5_SENSE Pin=U3-15
Added Net: Name=X5_SENSE
Added Pin To Net: NetName=X5 Pin=R11-2
Added Net: Name=X5
Added Pin To Net: NetName=X6_GND Pin=U3-3
Added Net: Name=X6_GND
Added Pin To Net: NetName=X6_SENSE Pin=R6-7
Added Pin To Net: NetName=X6_SENSE Pin=U3-14
Added Net: Name=X6_SENSE
Added Pin To Net: NetName=X6 Pin=R13-2
Added Net: Name=X6
Added Pin To Net: NetName=X7_GND Pin=U3-6
Added Net: Name=X7_GND
Added Pin To Net: NetName=X7_SENSE Pin=R6-8
Added Pin To Net: NetName=X7_SENSE Pin=U3-11
Added Net: Name=X7_SENSE
Added Pin To Net: NetName=X7 Pin=R15-2
Added Net: Name=X7
Added Pin To Net: NetName=X8_GND Pin=U3-7
Added Net: Name=X8_GND
Added Pin To Net: NetName=X8_SENSE Pin=R6-9
Added Pin To Net: NetName=X8_SENSE Pin=U3-10
Added Net: Name=X8_SENSE
Added Pin To Net: NetName=X8 Pin=R17-2
Added Net: Name=X8
Added Pin To Net: NetName=X9_GND Pin=U5-2
Added Net: Name=X9_GND
Added Pin To Net: NetName=X9_SENSE Pin=R25-2
Added Pin To Net: NetName=X9_SENSE Pin=U5-15
Added Net: Name=X9_SENSE
Added Pin To Net: NetName=X9 Pin=R19-2
Added Net: Name=X9
Added Pin To Net: NetName=X10_GND Pin=U5-3
Added Net: Name=X10_GND
Added Pin To Net: NetName=X10_SENSE Pin=R25-3
Added Pin To Net: NetName=X10_SENSE Pin=U5-14
Added Net: Name=X10_SENSE
Added Pin To Net: NetName=X10 Pin=R21-2
Added Net: Name=X10
Added Pin To Net: NetName=X11_GND Pin=U5-6
Added Net: Name=X11_GND
Added Pin To Net: NetName=X11_SENSE Pin=R25-4
Added Pin To Net: NetName=X11_SENSE Pin=U5-11
Added Net: Name=X11_SENSE
Added Pin To Net: NetName=X12_GND Pin=U5-7
Added Net: Name=X12_GND
Added Pin To Net: NetName=X12_SENSE Pin=R25-5
Added Pin To Net: NetName=X12_SENSE Pin=U5-10
Added Net: Name=X12_SENSE
Added Pin To Net: NetName=X13_GND Pin=U7-2
Added Net: Name=X13_GND
Added Pin To Net: NetName=X13_SENSE Pin=R25-6
Added Pin To Net: NetName=X13_SENSE Pin=U7-15
Added Net: Name=X13_SENSE
Added Pin To Net: NetName=X13 Pin=R29-2
Added Net: Name=X13
Added Pin To Net: NetName=X14_GND Pin=U7-3
Added Net: Name=X14_GND
Added Pin To Net: NetName=X14_SENSE Pin=R25-7
Added Pin To Net: NetName=X14_SENSE Pin=U7-14
Added Net: Name=X14_SENSE
Added Pin To Net: NetName=X14 Pin=R31-2
Added Net: Name=X14
Added Pin To Net: NetName=X15_GND Pin=U7-6
Added Net: Name=X15_GND
Added Pin To Net: NetName=X15_SENSE Pin=R25-8
Added Pin To Net: NetName=X15_SENSE Pin=U7-11
Added Net: Name=X15_SENSE
Added Pin To Net: NetName=X15 Pin=R33-2
Added Net: Name=X15
Added Pin To Net: NetName=X16_GND Pin=U7-7
Added Net: Name=X16_GND
Added Pin To Net: NetName=X16_SENSE Pin=R25-9
Added Pin To Net: NetName=X16_SENSE Pin=U7-10
Added Net: Name=X16_SENSE
Added Pin To Net: NetName=X16 Pin=R35-2
Added Net: Name=X16
Added Pin To Net: NetName=X17_GND Pin=U2-2
Added Net: Name=X17_GND
Added Pin To Net: NetName=X17_SENSE Pin=R10-2
Added Pin To Net: NetName=X17_SENSE Pin=U2-15
Added Net: Name=X17_SENSE
Added Pin To Net: NetName=X18_GND Pin=U2-3
Added Net: Name=X18_GND
Added Pin To Net: NetName=X18_SENSE Pin=R10-3
Added Pin To Net: NetName=X18_SENSE Pin=U2-14
Added Net: Name=X18_SENSE
Added Pin To Net: NetName=X19_GND Pin=U2-6
Added Net: Name=X19_GND
Added Pin To Net: NetName=X19_SENSE Pin=R10-4
Added Pin To Net: NetName=X19_SENSE Pin=U2-11
Added Net: Name=X19_SENSE
Added Pin To Net: NetName=X20_GND Pin=U2-7
Added Net: Name=X20_GND
Added Pin To Net: NetName=X20_SENSE Pin=R10-5
Added Pin To Net: NetName=X20_SENSE Pin=U2-10
Added Net: Name=X20_SENSE
Added Pin To Net: NetName=X21_GND Pin=U4-2
Added Net: Name=X21_GND
Added Pin To Net: NetName=X21_SENSE Pin=R10-6
Added Pin To Net: NetName=X21_SENSE Pin=U4-15
Added Net: Name=X21_SENSE
Added Pin To Net: NetName=X21 Pin=R12-2
Added Net: Name=X21
Added Pin To Net: NetName=X22_GND Pin=U4-3
Added Net: Name=X22_GND
Added Pin To Net: NetName=X22_SENSE Pin=R10-7
Added Pin To Net: NetName=X22_SENSE Pin=U4-14
Added Net: Name=X22_SENSE
Added Pin To Net: NetName=X22 Pin=R14-2
Added Net: Name=X22
Added Pin To Net: NetName=X23_GND Pin=U4-6
Added Net: Name=X23_GND
Added Pin To Net: NetName=X23_SENSE Pin=R10-8
Added Pin To Net: NetName=X23_SENSE Pin=U4-11
Added Net: Name=X23_SENSE
Added Pin To Net: NetName=X23 Pin=R16-2
Added Net: Name=X23
Added Pin To Net: NetName=X24_GND Pin=U4-7
Added Net: Name=X24_GND
Added Pin To Net: NetName=X24_SENSE Pin=R10-9
Added Pin To Net: NetName=X24_SENSE Pin=U4-10
Added Net: Name=X24_SENSE
Added Pin To Net: NetName=X24 Pin=R18-2
Added Net: Name=X24
Added Pin To Net: NetName=X25_GND Pin=U6-2
Added Net: Name=X25_GND
Added Pin To Net: NetName=X25_SENSE Pin=R26-2
Added Pin To Net: NetName=X25_SENSE Pin=U6-15
Added Net: Name=X25_SENSE
Added Pin To Net: NetName=X25 Pin=R20-2
Added Net: Name=X25
Added Pin To Net: NetName=X26_GND Pin=U6-3
Added Net: Name=X26_GND
Added Pin To Net: NetName=X26_SENSE Pin=R26-3
Added Pin To Net: NetName=X26_SENSE Pin=U6-14
Added Net: Name=X26_SENSE
Added Pin To Net: NetName=X26 Pin=R22-2
Added Net: Name=X26
Added Pin To Net: NetName=X27_GND Pin=U6-6
Added Net: Name=X27_GND
Added Pin To Net: NetName=X27_SENSE Pin=R26-4
Added Pin To Net: NetName=X27_SENSE Pin=U6-11
Added Net: Name=X27_SENSE
Added Pin To Net: NetName=X27 Pin=R24-2
Added Net: Name=X27
Added Pin To Net: NetName=X28_GND Pin=U6-7
Added Net: Name=X28_GND
Added Pin To Net: NetName=X28_SENSE Pin=R26-5
Added Pin To Net: NetName=X28_SENSE Pin=U6-10
Added Net: Name=X28_SENSE
Added Pin To Net: NetName=X28 Pin=R28-2
Added Net: Name=X28
Added Pin To Net: NetName=X29_GND Pin=U8-2
Added Net: Name=X29_GND
Added Pin To Net: NetName=X29_SENSE Pin=R26-6
Added Pin To Net: NetName=X29_SENSE Pin=U8-15
Added Net: Name=X29_SENSE
Added Pin To Net: NetName=X29 Pin=R30-2
Added Net: Name=X29
Added Pin To Net: NetName=X30_GND Pin=U8-3
Added Net: Name=X30_GND
Added Pin To Net: NetName=X30_SENSE Pin=R26-7
Added Pin To Net: NetName=X30_SENSE Pin=U8-14
Added Net: Name=X30_SENSE
Added Pin To Net: NetName=X30 Pin=R32-2
Added Net: Name=X30
Added Pin To Net: NetName=X31_GND Pin=U8-6
Added Net: Name=X31_GND
Added Pin To Net: NetName=X31_SENSE Pin=R26-8
Added Pin To Net: NetName=X31_SENSE Pin=U8-11
Added Net: Name=X31_SENSE
Added Pin To Net: NetName=X31 Pin=R34-2
Added Net: Name=X31
Added Pin To Net: NetName=X32_GND Pin=U8-7
Added Net: Name=X32_GND
Added Pin To Net: NetName=X32_SENSE Pin=R26-9
Added Pin To Net: NetName=X32_SENSE Pin=U8-10
Added Net: Name=X32_SENSE
Added Pin To Net: NetName=X32 Pin=R36-2
Added Net: Name=X32
Added Class: Name=BSH-GENERIC-SENSE-BOARD
