Added Component: Designator=C1(CAPCK45-8x5)
Add component. Clean all parameters for all variants
Add component (AddParameter): Name = "LatestRevisionDate"; Value = "17-Jul-2002"; VariantName = "[No Variations]"
Add component (AddParameter): Name = "LatestRevisionNote"; Value = "Re-released for DXP Platform."; VariantName = "[No Variations]"
Add component (AddParameter): Name = "PackageDescription"; Value = "Polarized Capacitor (Radial); 2 Leads"; VariantName = "[No Variations]"
Add component (AddParameter): Name = "PackageReference"; Value = "RB7.6-15"; VariantName = "[No Variations]"
Add component (AddParameter): Name = "Published"; Value = "8-Jun-2000"; VariantName = "[No Variations]"
Add component (AddParameter): Name = "Publisher"; Value = "Altium Limited"; VariantName = "[No Variations]"
Add component (AddParameter): Name = "Value"; Value = "2200UF"; VariantName = "[No Variations]"
Added Component: Designator=C2(CAPCK45-8x5)
Add component. Clean all parameters for all variants
Add component (AddParameter): Name = "LatestRevisionDate"; Value = "17-Jul-2002"; VariantName = "[No Variations]"
Add component (AddParameter): Name = "LatestRevisionNote"; Value = "Re-released for DXP Platform."; VariantName = "[No Variations]"
Add component (AddParameter): Name = "PackageDescription"; Value = "Polarized Capacitor (Radial); 2 Leads"; VariantName = "[No Variations]"
Add component (AddParameter): Name = "PackageReference"; Value = "RB7.6-15"; VariantName = "[No Variations]"
Add component (AddParameter): Name = "Published"; Value = "8-Jun-2000"; VariantName = "[No Variations]"
Add component (AddParameter): Name = "Publisher"; Value = "Altium Limited"; VariantName = "[No Variations]"
Add component (AddParameter): Name = "Value"; Value = "2200UF"; VariantName = "[No Variations]"
Added Component: Designator=C3(CAPCK45-8x5)
Add component. Clean all parameters for all variants
Add component (AddParameter): Name = "LatestRevisionDate"; Value = "17-Jul-2002"; VariantName = "[No Variations]"
Add component (AddParameter): Name = "LatestRevisionNote"; Value = "Re-released for DXP Platform."; VariantName = "[No Variations]"
Add component (AddParameter): Name = "PackageDescription"; Value = "Polarized Capacitor (Radial); 2 Leads"; VariantName = "[No Variations]"
Add component (AddParameter): Name = "PackageReference"; Value = "RB7.6-15"; VariantName = "[No Variations]"
Add component (AddParameter): Name = "Published"; Value = "8-Jun-2000"; VariantName = "[No Variations]"
Add component (AddParameter): Name = "Publisher"; Value = "Altium Limited"; VariantName = "[No Variations]"
Add component (AddParameter): Name = "Value"; Value = "2200UF"; VariantName = "[No Variations]"
Added Component: Designator=P1(HDR1X2)
Add component. Clean all parameters for all variants
Add component (AddParameter): Name = "LatestRevisionDate"; Value = "17-Jul-2002"; VariantName = "[No Variations]"
Add component (AddParameter): Name = "LatestRevisionNote"; Value = "Re-released for DXP Platform."; VariantName = "[No Variations]"
Add component (AddParameter): Name = "Publisher"; Value = "Altium Limited"; VariantName = "[No Variations]"
Added Component: Designator=P2(HDR1X8)
Add component. Clean all parameters for all variants
Add component (AddParameter): Name = "LatestRevisionDate"; Value = "17-Jul-2002"; VariantName = "[No Variations]"
Add component (AddParameter): Name = "LatestRevisionNote"; Value = "Re-released for DXP Platform."; VariantName = "[No Variations]"
Add component (AddParameter): Name = "Publisher"; Value = "Altium Limited"; VariantName = "[No Variations]"
Added Component: Designator=P3(HDR1X3)
Add component. Clean all parameters for all variants
Add component (AddParameter): Name = "LatestRevisionDate"; Value = "17-Jul-2002"; VariantName = "[No Variations]"
Add component (AddParameter): Name = "LatestRevisionNote"; Value = "Re-released for DXP Platform."; VariantName = "[No Variations]"
Add component (AddParameter): Name = "Publisher"; Value = "Altium Limited"; VariantName = "[No Variations]"
Added Component: Designator=P4(HDR1X2)
Add component. Clean all parameters for all variants
Add component (AddParameter): Name = "LatestRevisionDate"; Value = "17-Jul-2002"; VariantName = "[No Variations]"
Add component (AddParameter): Name = "LatestRevisionNote"; Value = "Re-released for DXP Platform."; VariantName = "[No Variations]"
Add component (AddParameter): Name = "Publisher"; Value = "Altium Limited"; VariantName = "[No Variations]"
Added Component: Designator=P5(HDR1X3)
Add component. Clean all parameters for all variants
Add component (AddParameter): Name = "LatestRevisionDate"; Value = "17-Jul-2002"; VariantName = "[No Variations]"
Add component (AddParameter): Name = "LatestRevisionNote"; Value = "Re-released for DXP Platform."; VariantName = "[No Variations]"
Add component (AddParameter): Name = "Publisher"; Value = "Altium Limited"; VariantName = "[No Variations]"
Added Component: Designator=P6(HDR1X8)
Add component. Clean all parameters for all variants
Add component (AddParameter): Name = "LatestRevisionDate"; Value = "17-Jul-2002"; VariantName = "[No Variations]"
Add component (AddParameter): Name = "LatestRevisionNote"; Value = "Re-released for DXP Platform."; VariantName = "[No Variations]"
Add component (AddParameter): Name = "Publisher"; Value = "Altium Limited"; VariantName = "[No Variations]"
Added Component: Designator=P7(5X14MM_LARGE)
Add component. Clean all parameters for all variants
Add component (AddParameter): Name = "LatestRevisionDate"; Value = "17-Jul-2002"; VariantName = "[No Variations]"
Add component (AddParameter): Name = "LatestRevisionNote"; Value = "Re-released for DXP Platform."; VariantName = "[No Variations]"
Add component (AddParameter): Name = "order"; Value = "ozdisan"; VariantName = "[No Variations]"
Add component (AddParameter): Name = "order code"; Value = "DG129-5.08-02P-14-00SH"; VariantName = "[No Variations]"
Add component (AddParameter): Name = "Publisher"; Value = "Altium Limited"; VariantName = "[No Variations]"
Add component (AddParameter): Name = "Value"; Value = "TERM.BLK.5.08MM 2P"; VariantName = "[No Variations]"
Added Component: Designator=P8(HDR1X3)
Add component. Clean all parameters for all variants
Add component (AddParameter): Name = "LatestRevisionDate"; Value = "17-Jul-2002"; VariantName = "[No Variations]"
Add component (AddParameter): Name = "LatestRevisionNote"; Value = "Re-released for DXP Platform."; VariantName = "[No Variations]"
Add component (AddParameter): Name = "Publisher"; Value = "Altium Limited"; VariantName = "[No Variations]"
Added Component: Designator=P9(5X14MM_LARGE)
Add component. Clean all parameters for all variants
Add component (AddParameter): Name = "LatestRevisionDate"; Value = "17-Jul-2002"; VariantName = "[No Variations]"
Add component (AddParameter): Name = "LatestRevisionNote"; Value = "Re-released for DXP Platform."; VariantName = "[No Variations]"
Add component (AddParameter): Name = "order"; Value = "ozdisan"; VariantName = "[No Variations]"
Add component (AddParameter): Name = "order code"; Value = "DG129-5.08-02P-14-00SH"; VariantName = "[No Variations]"
Add component (AddParameter): Name = "Publisher"; Value = "Altium Limited"; VariantName = "[No Variations]"
Add component (AddParameter): Name = "Value"; Value = "TERM.BLK.5.08MM 2P"; VariantName = "[No Variations]"
Added Component: Designator=Q1(TIP122)
Add component. Clean all parameters for all variants
Add component (AddParameter): Name = "Code_JEDEC"; Value = "TO-226-AA"; VariantName = "[No Variations]"
Add component (AddParameter): Name = "LatestRevisionDate"; Value = "17-Jul-2002"; VariantName = "[No Variations]"
Add component (AddParameter): Name = "LatestRevisionNote"; Value = "Re-released for DXP Platform."; VariantName = "[No Variations]"
Add component (AddParameter): Name = "PackageReference"; Value = "TO-226"; VariantName = "[No Variations]"
Add component (AddParameter): Name = "Published"; Value = "8-Jun-2000"; VariantName = "[No Variations]"
Add component (AddParameter): Name = "Publisher"; Value = "Altium Limited"; VariantName = "[No Variations]"
Added Component: Designator=R1(J1-0603)
Add component. Clean all parameters for all variants
Add component (AddParameter): Name = "Created"; Value = "05.07.2011"; VariantName = "[No Variations]"
Add component (AddParameter): Name = "Datasheet1"; Value = "97-1"; VariantName = "[No Variations]"
Add component (AddParameter): Name = "Datasheet2"; Value = "97-2"; VariantName = "[No Variations]"
Add component (AddParameter): Name = "Last Revision"; Value = ""; VariantName = "[No Variations]"
Add component (AddParameter): Name = "Manufacturer1"; Value = "ROYAL OHM"; VariantName = "[No Variations]"
Add component (AddParameter): Name = "Manufacturer2"; Value = "HITANO"; VariantName = "[No Variations]"
Add component (AddParameter): Name = "MTBF"; Value = ""; VariantName = "[No Variations]"
Add component (AddParameter): Name = "order"; Value = "ozdisan"; VariantName = "[No Variations]"
Add component (AddParameter): Name = "order code"; Value = "0603SAF4701T5E"; VariantName = "[No Variations]"
Add component (AddParameter): Name = "Type"; Value = ""; VariantName = "[No Variations]"
Add component (AddParameter): Name = "Value"; Value = "4K7"; VariantName = "[No Variations]"
Added Component: Designator=R2(J1-0603)
Add component. Clean all parameters for all variants
Add component (AddParameter): Name = "Created"; Value = "05.07.2011"; VariantName = "[No Variations]"
Add component (AddParameter): Name = "Datasheet1"; Value = "97-1"; VariantName = "[No Variations]"
Add component (AddParameter): Name = "Datasheet2"; Value = "97-2"; VariantName = "[No Variations]"
Add component (AddParameter): Name = "Last Revision"; Value = ""; VariantName = "[No Variations]"
Add component (AddParameter): Name = "Manufacturer1"; Value = "ROYAL OHM"; VariantName = "[No Variations]"
Add component (AddParameter): Name = "Manufacturer2"; Value = "HITANO"; VariantName = "[No Variations]"
Add component (AddParameter): Name = "MTBF"; Value = ""; VariantName = "[No Variations]"
Add component (AddParameter): Name = "order"; Value = "ozdisan"; VariantName = "[No Variations]"
Add component (AddParameter): Name = "order code"; Value = "0603SAF4701T5E"; VariantName = "[No Variations]"
Add component (AddParameter): Name = "Type"; Value = ""; VariantName = "[No Variations]"
Add component (AddParameter): Name = "Value"; Value = "4K7"; VariantName = "[No Variations]"
Added Component: Designator=R3(J1-0603)
Add component. Clean all parameters for all variants
Add component (AddParameter): Name = "Created"; Value = "05.07.2011"; VariantName = "[No Variations]"
Add component (AddParameter): Name = "Datasheet1"; Value = "97-1"; VariantName = "[No Variations]"
Add component (AddParameter): Name = "Datasheet2"; Value = "97-2"; VariantName = "[No Variations]"
Add component (AddParameter): Name = "Last Revision"; Value = ""; VariantName = "[No Variations]"
Add component (AddParameter): Name = "Manufacturer1"; Value = "ROYAL OHM"; VariantName = "[No Variations]"
Add component (AddParameter): Name = "Manufacturer2"; Value = "HITANO"; VariantName = "[No Variations]"
Add component (AddParameter): Name = "MTBF"; Value = ""; VariantName = "[No Variations]"
Add component (AddParameter): Name = "order"; Value = "ozdisan"; VariantName = "[No Variations]"
Add component (AddParameter): Name = "order code"; Value = "0603SAF4701T5E"; VariantName = "[No Variations]"
Add component (AddParameter): Name = "Type"; Value = ""; VariantName = "[No Variations]"
Add component (AddParameter): Name = "Value"; Value = "4K7"; VariantName = "[No Variations]"
Added Component: Designator=U1(ESP32_BOARD)
Add component. Clean all parameters for all variants
Added Pin To Net: NetName=3V3 Pin=U1-1
Added Pin To Net: NetName=3V3 Pin=U1-1
Added Pin To Net: NetName=3V3 Pin=U1-1
Added Pin To Net: NetName=3V3 Pin=U1-1
Added Pin To Net: NetName=3V3 Pin=U1-1
Added Pin To Net: NetName=3V3 Pin=U1-1
Added Pin To Net: NetName=3V3 Pin=U1-1
Added Pin To Net: NetName=3V3 Pin=U1-1
Added Pin To Net: NetName=3V3 Pin=U1-1
Added Pin To Net: NetName=3V3 Pin=U1-1
Added Pin To Net: NetName=3V3 Pin=U1-1
Added Pin To Net: NetName=3V3 Pin=U1-1
Added Pin To Net: NetName=3V3 Pin=U1-1
Added Pin To Net: NetName=3V3 Pin=U1-1
Added Pin To Net: NetName=3V3 Pin=U1-1
Added Pin To Net: NetName=3V3 Pin=U1-1
Added Pin To Net: NetName=3V3 Pin=U1-1
Added Pin To Net: NetName=3V3 Pin=U1-1
Added Pin To Net: NetName=3V3 Pin=U1-1
Added Pin To Net: NetName=3V3 Pin=U1-1
Added Pin To Net: NetName=3V3 Pin=U1-1
Added Pin To Net: NetName=3V3 Pin=U1-1
Added Pin To Net: NetName=3V3 Pin=U1-1
Added Pin To Net: NetName=3V3 Pin=U1-1
Added Pin To Net: NetName=3V3 Pin=U1-1
Added Pin To Net: NetName=3V3 Pin=U1-1
Added Pin To Net: NetName=3V3 Pin=U1-1
Added Pin To Net: NetName=3V3 Pin=U1-1
Added Pin To Net: NetName=3V3 Pin=U1-1
Added Pin To Net: NetName=3V3 Pin=U1-1
Added Pin To Net: NetName=3V3 Pin=U1-1
Added Pin To Net: NetName=3V3 Pin=U1-1
Added Pin To Net: NetName=3V3 Pin=U1-1
Added Pin To Net: NetName=3V3 Pin=U1-1
Added Pin To Net: NetName=3V3 Pin=U1-1
Added Pin To Net: NetName=3V3 Pin=U1-1
Added Pin To Net: NetName=3V3 Pin=U1-1
Added Pin To Net: NetName=3V3 Pin=U1-1
Added Pin To Net: NetName=3V3 Pin=U1-1
Added Pin To Net: NetName=3V3 Pin=U1-1
Added Pin To Net: NetName=3V3 Pin=U1-1
Added Pin To Net: NetName=3V3 Pin=U1-1
Added Pin To Net: NetName=3V3 Pin=U1-1
Added Pin To Net: NetName=3V3 Pin=U1-1
Added Pin To Net: NetName=3V3 Pin=U1-1
Added Pin To Net: NetName=3V3 Pin=U1-1
Added Pin To Net: NetName=3V3 Pin=U1-1
Added Pin To Net: NetName=3V3 Pin=U1-1
Added Pin To Net: NetName=3V3 Pin=U1-1
Added Pin To Net: NetName=3V3 Pin=U1-1
Added Pin To Net: NetName=3V3 Pin=U1-1
Added Pin To Net: NetName=3V3 Pin=U1-1
Added Pin To Net: NetName=3V3 Pin=U1-1
Added Pin To Net: NetName=3V3 Pin=U1-1
Added Pin To Net: NetName=3V3 Pin=U1-1
Added Pin To Net: NetName=3V3 Pin=U1-1
Added Pin To Net: NetName=3V3 Pin=U1-1
Added Pin To Net: NetName=3V3 Pin=U1-1
Added Pin To Net: NetName=3V3 Pin=U1-1
Added Pin To Net: NetName=3V3 Pin=U1-1
Added Pin To Net: NetName=3V3 Pin=U1-1
Added Pin To Net: NetName=3V3 Pin=U1-1
Added Pin To Net: NetName=3V3 Pin=U1-1
Added Pin To Net: NetName=3V3 Pin=U1-1
Added Pin To Net: NetName=3V3 Pin=U1-1
Added Pin To Net: NetName=3V3 Pin=U1-1
Added Pin To Net: NetName=3V3 Pin=U1-1
Added Pin To Net: NetName=3V3 Pin=U1-1
Added Pin To Net: NetName=3V3 Pin=U1-1
Added Pin To Net: NetName=3V3 Pin=U1-1
Added Pin To Net: NetName=3V3 Pin=U1-1
Added Pin To Net: NetName=3V3 Pin=U1-1
Added Pin To Net: NetName=3V3 Pin=U1-1
Added Pin To Net: NetName=3V3 Pin=U1-1
Added Pin To Net: NetName=3V3 Pin=U1-1
Added Pin To Net: NetName=3V3 Pin=U1-1
Added Pin To Net: NetName=3V3 Pin=U1-1
Added Net: Name=3V3
Added Pin To Net: NetName=5V Pin=C1-1
Added Pin To Net: NetName=5V Pin=P2-1
Added Pin To Net: NetName=5V Pin=P3-1
Added Pin To Net: NetName=5V Pin=P6-1
Added Pin To Net: NetName=5V Pin=P8-1
Added Pin To Net: NetName=5V Pin=P9-1
Added Pin To Net: NetName=5V Pin=U1-19
Added Net: Name=5V
Added Pin To Net: NetName=9V Pin=C3-1
Added Pin To Net: NetName=9V Pin=P5-1
Added Net: Name=9V
Added Pin To Net: NetName=12V Pin=C2-1
Added Pin To Net: NetName=12V Pin=P4-2
Added Pin To Net: NetName=12V Pin=P7-1
Added Net: Name=12V
Added Pin To Net: NetName=CANCEL_BUTTON Pin=P6-3
Added Net: Name=CANCEL_BUTTON
Added Pin To Net: NetName=DOWN_BUTTON Pin=P6-4
Added Net: Name=DOWN_BUTTON
Added Pin To Net: NetName=GND Pin=C1-2
Added Pin To Net: NetName=GND Pin=C2-2
Added Pin To Net: NetName=GND Pin=C3-2
Added Pin To Net: NetName=GND Pin=P1-1
Added Pin To Net: NetName=GND Pin=P2-8
Added Pin To Net: NetName=GND Pin=P3-3
Added Pin To Net: NetName=GND Pin=P5-3
Added Pin To Net: NetName=GND Pin=P6-8
Added Pin To Net: NetName=GND Pin=P7-2
Added Pin To Net: NetName=GND Pin=P8-3
Added Pin To Net: NetName=GND Pin=P9-2
Added Pin To Net: NetName=GND Pin=Q1-3
Added Pin To Net: NetName=GND Pin=U1-14
Added Pin To Net: NetName=GND Pin=U1-32
Added Pin To Net: NetName=GND Pin=U1-38
Added Net: Name=GND
Added Pin To Net: NetName=LEFT_BUTTON Pin=P6-5
Added Net: Name=LEFT_BUTTON
Added Pin To Net: NetName=NetP4_1 Pin=P4-1
Added Pin To Net: NetName=NetP4_1 Pin=Q1-1
Added Net: Name=NetP4_1
Added Pin To Net: NetName=NetQ1_2 Pin=Q1-2
Added Pin To Net: NetName=NetQ1_2 Pin=R3-2
Added Net: Name=NetQ1_2
Added Pin To Net: NetName=OK_BUTTON Pin=P6-2
Added Net: Name=OK_BUTTON
Added Pin To Net: NetName=PRESSURE_PULSE_IN Pin=P3-2
Added Net: Name=PRESSURE_PULSE_IN
Added Pin To Net: NetName=PRESSURE_REF Pin=P8-2
Added Net: Name=PRESSURE_REF
Added Pin To Net: NetName=RIGHT_BUTTON Pin=P6-7
Added Net: Name=RIGHT_BUTTON
Added Pin To Net: NetName=TFT_BL Pin=P2-7
Added Net: Name=TFT_BL
Added Pin To Net: NetName=TFT_CS Pin=P2-3
Added Net: Name=TFT_CS
Added Pin To Net: NetName=TFT_DC Pin=P2-4
Added Net: Name=TFT_DC
Added Pin To Net: NetName=TFT_MISO Pin=P2-5
Added Net: Name=TFT_MISO
Added Pin To Net: NetName=TFT_MOSI Pin=P2-2
Added Net: Name=TFT_MOSI
Added Pin To Net: NetName=TFT_SCK Pin=P2-6
Added Net: Name=TFT_SCK
Added Pin To Net: NetName=UP_BUTTON Pin=P1-2
Added Pin To Net: NetName=UP_BUTTON Pin=P5-2
Added Pin To Net: NetName=UP_BUTTON Pin=P6-6
Added Pin To Net: NetName=UP_BUTTON Pin=R1-1
Added Pin To Net: NetName=UP_BUTTON Pin=R1-2
Added Pin To Net: NetName=UP_BUTTON Pin=R2-1
Added Pin To Net: NetName=UP_BUTTON Pin=R2-2
Added Pin To Net: NetName=UP_BUTTON Pin=R3-1
Added Pin To Net: NetName=UP_BUTTON Pin=U1-5
Added Pin To Net: NetName=UP_BUTTON Pin=U1-6
Added Pin To Net: NetName=UP_BUTTON Pin=U1-7
Added Pin To Net: NetName=UP_BUTTON Pin=U1-8
Added Pin To Net: NetName=UP_BUTTON Pin=U1-9
Added Pin To Net: NetName=UP_BUTTON Pin=U1-10
Added Pin To Net: NetName=UP_BUTTON Pin=U1-11
Added Pin To Net: NetName=UP_BUTTON Pin=U1-12
Added Pin To Net: NetName=UP_BUTTON Pin=U1-13
Added Pin To Net: NetName=UP_BUTTON Pin=U1-15
Added Pin To Net: NetName=UP_BUTTON Pin=U1-23
Added Pin To Net: NetName=UP_BUTTON Pin=U1-26
Added Pin To Net: NetName=UP_BUTTON Pin=U1-28
Added Pin To Net: NetName=UP_BUTTON Pin=U1-29
Added Pin To Net: NetName=UP_BUTTON Pin=U1-30
Added Pin To Net: NetName=UP_BUTTON Pin=U1-31
Added Pin To Net: NetName=UP_BUTTON Pin=U1-33
Added Pin To Net: NetName=UP_BUTTON Pin=U1-36
Added Pin To Net: NetName=UP_BUTTON Pin=U1-37
Added Net: Name=UP_BUTTON
Added Class: Name=PRESSURE_FILTER_TEST_BOARD
