Removed Pin From Net: NetName=LINE_D Pin=P1-24
Removed Pin From Net: NetName=LINE_D Pin=P1-26
Removed Pin From Net: NetName=LINE_P Pin=P1-28
Removed Pin From Net: NetName=LINE_P Pin=P1-30
Removed Pin From Net: NetName=X11_26_iDOS_Np Pin=P1-32
Removed Pin From Net: NetName=LINE_P Pin=P1-34
Removed Pin From Net: NetName=X11_16_PUMP_Np Pin=P1-36
Removed Pin From Net: NetName=X11_5_AQUA_SW Pin=P1-38
Removed Pin From Net: NetName=X11_4_AQUA_VALVE_CONTROL_SIGNAL Pin=P1-40
Removed Pin From Net: NetName=+5VnP Pin=P1-41
Removed Pin From Net: NetName=X11_4_AQUA_VALVE_LIN_FROM_SW Pin=P1-42
Removed Pin From Net: NetName=X11_7_A Pin=P1-43
Removed Pin From Net: NetName=X11_13_VALVE3_CONTROL_SIGNAL Pin=P1-44
Removed Pin From Net: NetName=X11_7_B Pin=P1-45
Removed Pin From Net: NetName=X11_6_VALVE2_CONTROL_SIGNAL Pin=P1-46
Removed Pin From Net: NetName=X11_6_VALVE1_CONTROL_SIGNAL Pin=P1-48
Added Pin To Net: NetName=LINE_D Pin=P1-10
Added Pin To Net: NetName=LINE_D Pin=P1-12
Added Pin To Net: NetName=LINE_P Pin=P1-14
Added Pin To Net: NetName=LINE_P Pin=P1-16
Added Pin To Net: NetName=X11_26_iDOS_Np Pin=P1-18
Added Pin To Net: NetName=LINE_P Pin=P1-20
Added Pin To Net: NetName=X11_16_PUMP_Np Pin=P1-22
Added Pin To Net: NetName=X11_5_AQUA_SW Pin=P1-24
Added Pin To Net: NetName=X11_4_AQUA_VALVE_CONTROL_SIGNAL Pin=P1-26
Added Pin To Net: NetName=X11_4_AQUA_VALVE_LIN_FROM_SW Pin=P1-28
Added Pin To Net: NetName=X11_13_VALVE3_CONTROL_SIGNAL Pin=P1-30
Added Pin To Net: NetName=X11_6_VALVE2_CONTROL_SIGNAL Pin=P1-32
Added Pin To Net: NetName=X11_6_VALVE1_CONTROL_SIGNAL Pin=P1-34
Added Pin To Net: NetName=+5VnP Pin=P1-36
Added Pin To Net: NetName=X11_7_A Pin=P1-38
Added Pin To Net: NetName=X11_7_B Pin=P1-40
