Added Component: Designator=P1(BSH_WASHING_PU-L_PCB)
Add component. Clean all parameters for all variants
Added Pin To Net: NetName=X11_50_B Pin=P1-1
Added Pin To Net: NetName=X11_50_A Pin=P1-2
Added Pin To Net: NetName=+9V Pin=P1-3
Added Pin To Net: NetName=+9V_1 Pin=P1-4
Added Pin To Net: NetName=D2BUS_OU_+9V_1 Pin=P1-5
Added Pin To Net: NetName=0V/5V BUFFR OUTPUT Pin=P1-6
Added Pin To Net: NetName=GND Pin=P1-7
Added Pin To Net: NetName=D2BUS_IDOS_+9V_DBUS_SW Pin=P1-8
Added Pin To Net: NetName=D2BUS_IDOS_0V/5V BUFFR OUTPUT Pin=P1-9
Added Pin To Net: NetName=GND Pin=P1-10
Added Pin To Net: NetName=D2BUS_3D_+9V_DBUS_SW Pin=P1-11
Added Pin To Net: NetName=D2BUS_3D_0V/5V BUFFR OUTPUT Pin=P1-12
Added Pin To Net: NetName=GND Pin=P1-13
Added Pin To Net: NetName=D2BUS_DRYER_+9V_DBUS_SW Pin=P1-14
Added Pin To Net: NetName=D2BUS_DRYER_0V/5V BUFFR OUTPUT Pin=P1-15
Added Pin To Net: NetName=GND Pin=P1-16
Added Pin To Net: NetName=D2BUS_MU_+9V_DBUS_SW Pin=P1-17
Added Pin To Net: NetName=D2BUS_MU_0V/5V BUFFR OUTPUT Pin=P1-18
Added Pin To Net: NetName=GND Pin=P1-19
Added Pin To Net: NetName=RINSE_SENSOR_+9V_DBUS_SW Pin=P1-20
Added Pin To Net: NetName=RINSE_SENSOR_SENSE_PIN Pin=P1-21
Added Pin To Net: NetName=RINSE_SENSOR_CURRENT_MIRROR_PIN Pin=P1-22
Added Pin To Net: NetName=FLOWRATE_2_GND Pin=P1-23
Added Pin To Net: NetName=FLOWRATE_2_SENSE Pin=P1-24
Added Pin To Net: NetName=FLOWRATE_1_+9V_DBUS_SW Pin=P1-25
Added Pin To Net: NetName=FLOWRATE_1_GND Pin=P1-26
Added Pin To Net: NetName=GND Pin=P1-27
Added Pin To Net: NetName=PRESSURE_SENSOR_SENSE Pin=P1-28
Added Pin To Net: NetName=+5VnP Pin=P1-29
Added Pin To Net: NetName=X11_7_A Pin=P1-30
Added Pin To Net: NetName=X11_7_B Pin=P1-31
Added Member To Class: ClassName=PU_POWER_PCB_TEST Member=Component P1 BSH_WASHING_PU-L_POWER_PCB
