Removed Pin From Net: NetName=D2BUS_3D_+9V_DBUS_SW Pin=P1-2
Removed Pin From Net: NetName=+9V_1 Pin=P1-4
Added Pin To Net: NetName=D2BUS_3D_0V/5V BUFFR OUTPUT Pin=P1-2
Added Pin To Net: NetName=D2BUS_3D_+9V_DBUS_SW Pin=P1-4
Added Pin To Net: NetName=+9V_1 Pin=P1-6
