Removed Pin From Net: NetName=D2BUS_MU_+9V_DBUS_SW Pin=P1-11
Removed Pin From Net: NetName=D2BUS_MU_0V/5V BUFFR OUTPUT Pin=P1-12
Removed Pin From Net: NetName=RINSE_SENSOR_+9V_DBUS_SW Pin=P1-13
Removed Pin From Net: NetName=RINSE_SENSOR_SENSE_PIN Pin=P1-14
Removed Pin From Net: NetName=RINSE_SENSOR_CURRENT_MIRROR_PIN Pin=P1-15
Removed Pin From Net: NetName=FLOWRATE_2_GND Pin=P1-16
Removed Pin From Net: NetName=FLOWRATE_2_SENSE Pin=P1-17
Removed Pin From Net: NetName=FLOWRATE_1_+9V_DBUS_SW Pin=P1-18
Removed Pin From Net: NetName=FLOWRATE_1_GND Pin=P1-19
Removed Pin From Net: NetName=PRESSURE_SENSOR_SENSE Pin=P1-20
Added Pin To Net: NetName=PRESSURE_SENSOR_SENSE Pin=P1-11
Added Pin To Net: NetName=FLOWRATE_1_GND Pin=P1-12
Added Pin To Net: NetName=FLOWRATE_1_+9V_DBUS_SW Pin=P1-13
Added Pin To Net: NetName=FLOWRATE_2_SENSE Pin=P1-14
Added Pin To Net: NetName=FLOWRATE_2_GND Pin=P1-15
Added Pin To Net: NetName=RINSE_SENSOR_CURRENT_MIRROR_PIN Pin=P1-16
Added Pin To Net: NetName=RINSE_SENSOR_SENSE_PIN Pin=P1-17
Added Pin To Net: NetName=RINSE_SENSOR_+9V_DBUS_SW Pin=P1-18
Added Pin To Net: NetName=D2BUS_MU_0V/5V BUFFR OUTPUT Pin=P1-19
Added Pin To Net: NetName=D2BUS_MU_+9V_DBUS_SW Pin=P1-20
