Added Component: Designator=*(BSH_WASHING_PU-L_PCB)
Add component. Clean all parameters for all variants
Added Pin To Net: NetName=X11_50_B Pin=*-1
Added Pin To Net: NetName=X11_50_A Pin=*-2
Added Pin To Net: NetName=+9V Pin=*-3
Added Pin To Net: NetName=+9V_1 Pin=*-4
Added Pin To Net: NetName=D2BUS_OU_+9V_1 Pin=*-5
Added Pin To Net: NetName=0V/5V BUFFR OUTPUT Pin=*-6
Added Pin To Net: NetName=GND Pin=*-7
Added Pin To Net: NetName=D2BUS_IDOS_+9V_DBUS_SW Pin=*-8
Added Pin To Net: NetName=D2BUS_IDOS_0V/5V BUFFR OUTPUT Pin=*-9
Added Pin To Net: NetName=GND Pin=*-10
Added Pin To Net: NetName=D2BUS_3D_+9V_DBUS_SW Pin=*-11
Added Pin To Net: NetName=D2BUS_3D_0V/5V BUFFR OUTPUT Pin=*-12
Added Pin To Net: NetName=GND Pin=*-13
Added Pin To Net: NetName=D2BUS_DRYER_+9V_DBUS_SW Pin=*-14
Added Pin To Net: NetName=D2BUS_DRYER_0V/5V BUFFR OUTPUT Pin=*-15
Added Pin To Net: NetName=GND Pin=*-16
Added Pin To Net: NetName=D2BUS_MU_+9V_DBUS_SW Pin=*-17
Added Pin To Net: NetName=D2BUS_MU_0V/5V BUFFR OUTPUT Pin=*-18
Added Pin To Net: NetName=GND Pin=*-19
Added Pin To Net: NetName=RINSE_SENSOR_+9V_DBUS_SW Pin=*-20
Added Pin To Net: NetName=RINSE_SENSOR_SENSE_PIN Pin=*-21
Added Pin To Net: NetName=RINSE_SENSOR_CURRENT_MIRROR_PIN Pin=*-22
Added Pin To Net: NetName=FLOWRATE_2_GND Pin=*-23
Added Pin To Net: NetName=FLOWRATE_2_SENSE Pin=*-24
Added Pin To Net: NetName=FLOWRATE_1_+9V_DBUS_SW Pin=*-25
Added Pin To Net: NetName=FLOWRATE_1_GND Pin=*-26
Added Pin To Net: NetName=GND Pin=*-27
Added Pin To Net: NetName=PRESSURE_SENSOR_SENSE Pin=*-28
Added Pin To Net: NetName=+5VnP Pin=*-29
Added Pin To Net: NetName=X11_7_A Pin=*-30
Added Pin To Net: NetName=X11_7_B Pin=*-31
Added Member To Class: ClassName=PU_POWER_PCB_TEST Member=Component * BSH_WASHING_PU-L_POWER_PCB
