Removed Pin From Net: NetName=X11_50_A Pin=P1-3
Removed Pin From Net: NetName=+9V Pin=P1-5
Removed Pin From Net: NetName=D2BUS_OU_+9V_1 Pin=P1-7
Removed Pin From Net: NetName=0V/5V BUFFR OUTPUT Pin=P1-9
Removed Pin From Net: NetName=LINE_D Pin=P1-10
Removed Pin From Net: NetName=GND Pin=P1-11
Removed Pin From Net: NetName=LINE_D Pin=P1-12
Removed Pin From Net: NetName=D2BUS_IDOS_+9V_DBUS_SW Pin=P1-13
Removed Pin From Net: NetName=LINE_P Pin=P1-14
Removed Pin From Net: NetName=D2BUS_IDOS_0V/5V BUFFR OUTPUT Pin=P1-15
Removed Pin From Net: NetName=LINE_P Pin=P1-16
Removed Pin From Net: NetName=D2BUS_DRYER_+9V_DBUS_SW Pin=P1-17
Removed Pin From Net: NetName=X11_26_iDOS_Np Pin=P1-18
Removed Pin From Net: NetName=D2BUS_DRYER_0V/5V BUFFR OUTPUT Pin=P1-19
Removed Pin From Net: NetName=LINE_P Pin=P1-20
Removed Pin From Net: NetName=D2BUS_MU_+9V_DBUS_SW Pin=P1-21
Removed Pin From Net: NetName=X11_16_PUMP_Np Pin=P1-22
Removed Pin From Net: NetName=D2BUS_MU_0V/5V BUFFR OUTPUT Pin=P1-23
Removed Pin From Net: NetName=X11_5_AQUA_SW Pin=P1-24
Removed Pin From Net: NetName=RINSE_SENSOR_+9V_DBUS_SW Pin=P1-25
Removed Pin From Net: NetName=X11_4_AQUA_VALVE_CONTROL_SIGNAL Pin=P1-26
Removed Pin From Net: NetName=RINSE_SENSOR_SENSE_PIN Pin=P1-27
Removed Pin From Net: NetName=X11_4_AQUA_VALVE_LIN_FROM_SW Pin=P1-28
Removed Pin From Net: NetName=RINSE_SENSOR_CURRENT_MIRROR_PIN Pin=P1-29
Removed Pin From Net: NetName=X11_13_VALVE3_CONTROL_SIGNAL Pin=P1-30
Removed Pin From Net: NetName=FLOWRATE_2_GND Pin=P1-31
Removed Pin From Net: NetName=X11_6_VALVE2_CONTROL_SIGNAL Pin=P1-32
Removed Pin From Net: NetName=FLOWRATE_2_SENSE Pin=P1-33
Removed Pin From Net: NetName=X11_6_VALVE1_CONTROL_SIGNAL Pin=P1-34
Removed Pin From Net: NetName=FLOWRATE_1_+9V_DBUS_SW Pin=P1-35
Removed Pin From Net: NetName=X11_7_B Pin=P1-36
Removed Pin From Net: NetName=FLOWRATE_1_GND Pin=P1-37
Removed Pin From Net: NetName=X11_7_A Pin=P1-38
Removed Pin From Net: NetName=PRESSURE_SENSOR_SENSE Pin=P1-39
Removed Pin From Net: NetName=+5VnP Pin=P1-40
Change Component Footprint: Designator=P1 Old Footprint=HDR2X24 New Footprint=HDR2X10_CEN
Change Component Comment : Designator=P1 Old Comment=Header 24X2 New Comment=Header 10X2A
Added Component: Designator=P3(HDR2X7)
Add component. Clean all parameters for all variants
Add component (AddParameter): Name = "LatestRevisionDate"; Value = "17-Jul-2002"; VariantName = "[No Variations]"
Add component (AddParameter): Name = "LatestRevisionNote"; Value = "Re-released for DXP Platform."; VariantName = "[No Variations]"
Add component (AddParameter): Name = "Publisher"; Value = "Altium Limited"; VariantName = "[No Variations]"
Added Pin To Net: NetName=X11_50_A Pin=P1-2
Added Pin To Net: NetName=+9V Pin=P1-3
Added Pin To Net: NetName=D2BUS_OU_+9V_1 Pin=P1-4
Added Pin To Net: NetName=0V/5V BUFFR OUTPUT Pin=P1-5
Added Pin To Net: NetName=GND Pin=P1-6
Added Pin To Net: NetName=D2BUS_IDOS_+9V_DBUS_SW Pin=P1-7
Added Pin To Net: NetName=D2BUS_IDOS_0V/5V BUFFR OUTPUT Pin=P1-8
Added Pin To Net: NetName=D2BUS_DRYER_+9V_DBUS_SW Pin=P1-9
Added Pin To Net: NetName=D2BUS_DRYER_0V/5V BUFFR OUTPUT Pin=P1-10
Added Pin To Net: NetName=D2BUS_MU_+9V_DBUS_SW Pin=P1-11
Added Pin To Net: NetName=D2BUS_MU_0V/5V BUFFR OUTPUT Pin=P1-12
Added Pin To Net: NetName=RINSE_SENSOR_+9V_DBUS_SW Pin=P1-13
Added Pin To Net: NetName=RINSE_SENSOR_SENSE_PIN Pin=P1-14
Added Pin To Net: NetName=RINSE_SENSOR_CURRENT_MIRROR_PIN Pin=P1-15
Added Pin To Net: NetName=FLOWRATE_2_GND Pin=P1-16
Added Pin To Net: NetName=FLOWRATE_2_SENSE Pin=P1-17
Added Pin To Net: NetName=FLOWRATE_1_+9V_DBUS_SW Pin=P1-18
Added Pin To Net: NetName=FLOWRATE_1_GND Pin=P1-19
Added Pin To Net: NetName=PRESSURE_SENSOR_SENSE Pin=P1-20
Added Pin To Net: NetName=LINE_D Pin=P3-1
Added Pin To Net: NetName=X11_13_VALVE3_CONTROL_SIGNAL Pin=P3-2
Added Pin To Net: NetName=X11_26_iDOS_Np Pin=P3-3
Added Pin To Net: NetName=X11_6_VALVE2_CONTROL_SIGNAL Pin=P3-4
Added Pin To Net: NetName=LINE_P Pin=P3-5
Added Pin To Net: NetName=X11_6_VALVE1_CONTROL_SIGNAL Pin=P3-6
Added Pin To Net: NetName=X11_16_PUMP_Np Pin=P3-7
Added Pin To Net: NetName=X11_7_B Pin=P3-8
Added Pin To Net: NetName=X11_5_AQUA_SW Pin=P3-9
Added Pin To Net: NetName=X11_7_A Pin=P3-10
Added Pin To Net: NetName=X11_4_AQUA_VALVE_CONTROL_SIGNAL Pin=P3-11
Added Pin To Net: NetName=+5VnP Pin=P3-12
Added Pin To Net: NetName=X11_4_AQUA_VALVE_LIN_FROM_SW Pin=P3-13
Added Member To Class: ClassName=PU_POWER_PCB_TEST Member=Component P3 Header 7X2
