Removed Pin From Net: NetName=X11_50_A Pin=P1-1
Removed Pin From Net: NetName=X11_50_B Pin=P1-3
Removed Pin From Net: NetName=GND Pin=P1-7
Removed Pin From Net: NetName=D2BUS_OU_+9V_1 Pin=P1-11
Removed Pin From Net: NetName=D2BUS_IDOS_+9V_DBUS_SW Pin=P1-15
Removed Pin From Net: NetName=D2BUS_DRYER_0V/5V BUFFR OUTPUT Pin=P1-17
Removed Pin From Net: NetName=D2BUS_DRYER_+9V_DBUS_SW Pin=P1-19
Added Pin To Net: NetName=X11_50_B Pin=P1-1
Added Pin To Net: NetName=X11_50_A Pin=P1-3
Added Pin To Net: NetName=D2BUS_OU_+9V_1 Pin=P1-7
Added Pin To Net: NetName=GND Pin=P1-11
Added Pin To Net: NetName=D2BUS_DRYER_0V/5V BUFFR OUTPUT Pin=P1-15
Added Pin To Net: NetName=D2BUS_DRYER_+9V_DBUS_SW Pin=P1-17
Added Pin To Net: NetName=D2BUS_IDOS_+9V_DBUS_SW Pin=P1-19
