Added Net: Name=+5VnP
Added Net: Name=+9V_1
Added Net: Name=+9V
Added Net: Name=0V/5V BUFFR OUTPUT
Added Net: Name=D2BUS_3D_0V/5V BUFFR OUTPUT
Added Net: Name=D2BUS_3D_+9V_DBUS_SW
Added Net: Name=D2BUS_DRYER_0V/5V BUFFR OUTPUT
Added Net: Name=D2BUS_DRYER_+9V_DBUS_SW
Added Net: Name=D2BUS_IDOS_0V/5V BUFFR OUTPUT
Added Net: Name=D2BUS_IDOS_+9V_DBUS_SW
Added Net: Name=D2BUS_MU_0V/5V BUFFR OUTPUT
Added Net: Name=D2BUS_MU_+9V_DBUS_SW
Added Net: Name=D2BUS_OU_+9V_1
Added Net: Name=FLOWRATE_1_+9V_DBUS_SW
Added Net: Name=FLOWRATE_1_GND
Added Net: Name=FLOWRATE_2_GND
Added Net: Name=FLOWRATE_2_SENSE
Added Net: Name=GND
Added Net: Name=PRESSURE_SENSOR_SENSE
Added Net: Name=RINSE_SENSOR_+9V_DBUS_SW
Added Net: Name=RINSE_SENSOR_CURRENT_MIRROR_PIN
Added Net: Name=RINSE_SENSOR_SENSE_PIN
Added Net: Name=X11_7_A
Added Net: Name=X11_7_B
Added Net: Name=X11_50_A
Added Net: Name=X11_50_B
Added Class: Name=PU_POWER_PCB_TEST
