Removed Pin From Net: NetName=A2_MUX_1 Pin=R48-1
Removed Pin From Net: NetName=VCC Pin=R48-2
Removed Pin From Net: NetName=A1_MUX_1 Pin=R55-1
Removed Pin From Net: NetName=VCC Pin=R55-2
Removed Pin From Net: NetName=A0_MUX_1 Pin=R57-1
Removed Pin From Net: NetName=VCC Pin=R57-2
Removed Pin From Net: NetName=A2_MUX_2 Pin=R58-1
Removed Pin From Net: NetName=VCC Pin=R58-2
Removed Pin From Net: NetName=A1_MUX_2 Pin=R59-1
Removed Pin From Net: NetName=VCC Pin=R59-2
Removed Pin From Net: NetName=A0_MUX_2 Pin=R60-1
Removed Pin From Net: NetName=VCC Pin=R60-2
Removed Member From Class: ClassName=BSH-PU_L_SENSE_BOARD Member=R55
Removed Member From Class: ClassName=BSH-PU_L_SENSE_BOARD Member=R57
Removed Member From Class: ClassName=BSH-PU_L_SENSE_BOARD Member=R58
Removed Member From Class: ClassName=BSH-PU_L_SENSE_BOARD Member=R59
Removed Member From Class: ClassName=BSH-PU_L_SENSE_BOARD Member=R60
