Removed Pin From Net: NetName=RINSE_SENSOR_SENSE_PIN_FROM_MCU Pin=U12-8
Added Component: Designator=R56(J1-0603)
Add component. Clean all parameters for all variants
Add component (AddParameter): Name = "Created"; Value = "05.07.2011"; VariantName = "[No Variations]"
Add component (AddParameter): Name = "Datasheet1"; Value = "97-1"; VariantName = "[No Variations]"
Add component (AddParameter): Name = "Datasheet2"; Value = "97-2"; VariantName = "[No Variations]"
Add component (AddParameter): Name = "Last Revision"; Value = ""; VariantName = "[No Variations]"
Add component (AddParameter): Name = "Manufacturer1"; Value = "ROYAL OHM"; VariantName = "[No Variations]"
Add component (AddParameter): Name = "Manufacturer2"; Value = "HITANO"; VariantName = "[No Variations]"
Add component (AddParameter): Name = "MTBF"; Value = ""; VariantName = "[No Variations]"
Add component (AddParameter): Name = "Order Code1"; Value = "0603SAJ0103T5E"; VariantName = "[No Variations]"
Add component (AddParameter): Name = "Order Code2"; Value = "RC0603JK-10K"; VariantName = "[No Variations]"
Add component (AddParameter): Name = "Type"; Value = ""; VariantName = "[No Variations]"
Add component (AddParameter): Name = "Value"; Value = "1K"; VariantName = "[No Variations]"
Added Pin To Net: NetName=RINSE_SENSOR_SENSE_PIN_FROM_MCU Pin=R56-2
Added Pin To Net: NetName=NetR56_1 Pin=R56-1
Added Pin To Net: NetName=NetR56_1 Pin=U12-8
Added Net: Name=NetR56_1
Added Member To Class: ClassName=BSH-PU_L_SENSE_BOARD Member=Component R56 RES040000305
