Removed Pin From Net: NetName=FLOWRATE_+9V_DBUS_SW_SENSE Pin=R24-9
Removed Pin From Net: NetName=FLOWRATE_+9V_DBUS_SW Pin=R28-2
Removed Pin From Net: NetName=D2BUS_3D_0V/5V BUFFR OUTPUT Pin=R39-2
Removed Pin From Net: NetName=FLOWRATE_GND Pin=U10-7
Removed Pin From Net: NetName=FLOWRATE_+9V_DBUS_SW_SENSE Pin=U10-10
Removed Pin From Net: NetName=GND_WM Pin=U12-6
Change Component Designator: OldDesignator=R? NewDesignator=R48
Added Pin To Net: NetName=GND Pin=R24-9
Added Pin To Net: NetName=D2BUS_3D_0V/5V BUFFR OUTPUT Pin=R28-2
Added Pin To Net: NetName=FLOWRATE_+9V_DBUS_SW_SENSE Pin=R29-8
Added Pin To Net: NetName=FLOWRATE_+9V_DBUS_SW Pin=R39-2
Added Pin To Net: NetName=GND_WM Pin=U10-7
Added Pin To Net: NetName=GND Pin=U10-10
Added Pin To Net: NetName=FLOWRATE_GND Pin=U12-6
Added Pin To Net: NetName=FLOWRATE_+9V_DBUS_SW_SENSE Pin=U12-11
Added Pin To Net: NetName=GND Pin=U15-21
Change Net Name : Old Net Name=GND New Net Name=D2BUS_3D_0V/5V BUFFR OUTPUT_SENSE
