Added Component: Designator=R48(J1-0603)
Add component. Clean all parameters for all variants
Add component (AddParameter): Name = "Created"; Value = "05.07.2011"; VariantName = "[No Variations]"
Add component (AddParameter): Name = "Datasheet1"; Value = "97-1"; VariantName = "[No Variations]"
Add component (AddParameter): Name = "Datasheet2"; Value = "97-2"; VariantName = "[No Variations]"
Add component (AddParameter): Name = "Last Revision"; Value = ""; VariantName = "[No Variations]"
Add component (AddParameter): Name = "Manufacturer1"; Value = "ROYAL OHM"; VariantName = "[No Variations]"
Add component (AddParameter): Name = "Manufacturer2"; Value = "HITANO"; VariantName = "[No Variations]"
Add component (AddParameter): Name = "MTBF"; Value = ""; VariantName = "[No Variations]"
Add component (AddParameter): Name = "Order Code1"; Value = "0603SAJ0103T5E"; VariantName = "[No Variations]"
Add component (AddParameter): Name = "Order Code2"; Value = "RC0603JK-10K"; VariantName = "[No Variations]"
Add component (AddParameter): Name = "Type"; Value = ""; VariantName = "[No Variations]"
Add component (AddParameter): Name = "Value"; Value = "1K"; VariantName = "[No Variations]"
Added Pin To Net: NetName=FLOWRATE_+9V_DBUS_SW Pin=R48-2
Added Pin To Net: NetName=FLOWRATE_GND Pin=U14-6
Added Pin To Net: NetName=GND Pin=U14-12
Added Pin To Net: NetName=FLOWRATE_+9V_DBUS_SW_SENSE Pin=R29-9
Added Pin To Net: NetName=FLOWRATE_+9V_DBUS_SW_SENSE Pin=U14-11
Added Net: Name=FLOWRATE_+9V_DBUS_SW_SENSE
Added Pin To Net: NetName=NetR48_1 Pin=R48-1
Added Pin To Net: NetName=NetR48_1 Pin=U14-5
Added Net: Name=NetR48_1
Added Member To Class: ClassName=BSH-PU_L_SENSE_BOARD Member=Component R48 RES040000305
