Removed Pin From Net: NetName=GND Pin=Q?-3
Removed Member From Class: ClassName=BSH_PUMP_VALVE_TEST_MAIN_BOARD Member=P?
Removed Member From Class: ClassName=BSH_PUMP_VALVE_TEST_MAIN_BOARD Member=Q?
Change Component Designator: OldDesignator=Q? NewDesignator=Q2
Change Component Designator: OldDesignator=R? NewDesignator=R7
Change Component Designator: OldDesignator=R? NewDesignator=R8
Change component parameters: Designator = "R8"; Footprint = "J1-0603"; UniqueID = "\TKXLBLIO"
Change component parameters. Clean all parameters for all variants
Change component parameters (AddParameter): Name = "Created"; Value = "05.07.2011"; VariantName = "[No Variations]"
Change component parameters (AddParameter): Name = "Datasheet1"; Value = "97-1"; VariantName = "[No Variations]"
Change component parameters (AddParameter): Name = "Datasheet2"; Value = "97-2"; VariantName = "[No Variations]"
Change component parameters (AddParameter): Name = "Last Revision"; Value = ""; VariantName = "[No Variations]"
Change component parameters (AddParameter): Name = "Manufacturer1"; Value = "ROYAL OHM"; VariantName = "[No Variations]"
Change component parameters (AddParameter): Name = "Manufacturer2"; Value = "HITANO"; VariantName = "[No Variations]"
Change component parameters (AddParameter): Name = "MTBF"; Value = ""; VariantName = "[No Variations]"
Change component parameters (AddParameter): Name = "order"; Value = "ozdisan"; VariantName = "[No Variations]"
Change component parameters (AddParameter): Name = "order code"; Value = "0603SAF4701T5E"; VariantName = "[No Variations]"
Change component parameters (AddParameter): Name = "Type"; Value = ""; VariantName = "[No Variations]"
Change component parameters (AddParameter): Name = "Value"; Value = "1K"; VariantName = "[No Variations]"
Change component parameters: Designator = "R7"; Footprint = "J1-0603"; UniqueID = "\BWCGBWJR"
Change component parameters. Clean all parameters for all variants
Change component parameters (AddParameter): Name = "Created"; Value = "05.07.2011"; VariantName = "[No Variations]"
Change component parameters (AddParameter): Name = "Datasheet1"; Value = "97-1"; VariantName = "[No Variations]"
Change component parameters (AddParameter): Name = "Datasheet2"; Value = "97-2"; VariantName = "[No Variations]"
Change component parameters (AddParameter): Name = "Last Revision"; Value = ""; VariantName = "[No Variations]"
Change component parameters (AddParameter): Name = "Manufacturer1"; Value = "ROYAL OHM"; VariantName = "[No Variations]"
Change component parameters (AddParameter): Name = "Manufacturer2"; Value = "HITANO"; VariantName = "[No Variations]"
Change component parameters (AddParameter): Name = "MTBF"; Value = ""; VariantName = "[No Variations]"
Change component parameters (AddParameter): Name = "order"; Value = "ozdisan"; VariantName = "[No Variations]"
Change component parameters (AddParameter): Name = "order code"; Value = "0603SAF4701T5E"; VariantName = "[No Variations]"
Change component parameters (AddParameter): Name = "Type"; Value = ""; VariantName = "[No Variations]"
Change component parameters (AddParameter): Name = "Value"; Value = "1K"; VariantName = "[No Variations]"
Added Component: Designator=P6(HDR1X4)
Add component. Clean all parameters for all variants
Add component (AddParameter): Name = "LatestRevisionDate"; Value = "17-Jul-2002"; VariantName = "[No Variations]"
Add component (AddParameter): Name = "LatestRevisionNote"; Value = "Re-released for DXP Platform."; VariantName = "[No Variations]"
Add component (AddParameter): Name = "Publisher"; Value = "Altium Limited"; VariantName = "[No Variations]"
Added Component: Designator=Q1(TIP122)
Add component. Clean all parameters for all variants
Add component (AddParameter): Name = "Code_JEDEC"; Value = "TO-226-AA"; VariantName = "[No Variations]"
Add component (AddParameter): Name = "LatestRevisionDate"; Value = "17-Jul-2002"; VariantName = "[No Variations]"
Add component (AddParameter): Name = "LatestRevisionNote"; Value = "Re-released for DXP Platform."; VariantName = "[No Variations]"
Add component (AddParameter): Name = "PackageReference"; Value = "TO-226"; VariantName = "[No Variations]"
Add component (AddParameter): Name = "Published"; Value = "8-Jun-2000"; VariantName = "[No Variations]"
Add component (AddParameter): Name = "Publisher"; Value = "Altium Limited"; VariantName = "[No Variations]"
Added Component: Designator=R5(J1-0603)
Add component. Clean all parameters for all variants
Add component (AddParameter): Name = "Created"; Value = "05.07.2011"; VariantName = "[No Variations]"
Add component (AddParameter): Name = "Datasheet1"; Value = "97-1"; VariantName = "[No Variations]"
Add component (AddParameter): Name = "Datasheet2"; Value = "97-2"; VariantName = "[No Variations]"
Add component (AddParameter): Name = "Last Revision"; Value = ""; VariantName = "[No Variations]"
Add component (AddParameter): Name = "Manufacturer1"; Value = "ROYAL OHM"; VariantName = "[No Variations]"
Add component (AddParameter): Name = "Manufacturer2"; Value = "HITANO"; VariantName = "[No Variations]"
Add component (AddParameter): Name = "MTBF"; Value = ""; VariantName = "[No Variations]"
Add component (AddParameter): Name = "order"; Value = "ozdisan"; VariantName = "[No Variations]"
Add component (AddParameter): Name = "order code"; Value = "0603SAF4701T5E"; VariantName = "[No Variations]"
Add component (AddParameter): Name = "Type"; Value = ""; VariantName = "[No Variations]"
Add component (AddParameter): Name = "Value"; Value = "4K7"; VariantName = "[No Variations]"
Added Component: Designator=R6(J1-0603)
Add component. Clean all parameters for all variants
Add component (AddParameter): Name = "Created"; Value = "05.07.2011"; VariantName = "[No Variations]"
Add component (AddParameter): Name = "Datasheet1"; Value = "97-1"; VariantName = "[No Variations]"
Add component (AddParameter): Name = "Datasheet2"; Value = "97-2"; VariantName = "[No Variations]"
Add component (AddParameter): Name = "Last Revision"; Value = ""; VariantName = "[No Variations]"
Add component (AddParameter): Name = "Manufacturer1"; Value = "ROYAL OHM"; VariantName = "[No Variations]"
Add component (AddParameter): Name = "Manufacturer2"; Value = "HITANO"; VariantName = "[No Variations]"
Add component (AddParameter): Name = "MTBF"; Value = ""; VariantName = "[No Variations]"
Add component (AddParameter): Name = "order"; Value = "ozdisan"; VariantName = "[No Variations]"
Add component (AddParameter): Name = "order code"; Value = "0603SAF4701T5E"; VariantName = "[No Variations]"
Add component (AddParameter): Name = "Type"; Value = ""; VariantName = "[No Variations]"
Add component (AddParameter): Name = "Value"; Value = "4K7"; VariantName = "[No Variations]"
Added Pin To Net: NetName=GND Pin=P6-1
Added Pin To Net: NetName=5V Pin=P6-4
Added Pin To Net: NetName=GND Pin=Q1-3
Added Pin To Net: NetName=5V Pin=R5-2
Added Pin To Net: NetName=5V Pin=R6-2
Added Pin To Net: NetName=RELAY_DISCHARGE Pin=R8-1
Added Pin To Net: NetName=NetQ1_2 Pin=Q1-2
Added Pin To Net: NetName=NetQ1_2 Pin=R7-2
Added Net: Name=NetQ1_2
Added Pin To Net: NetName=NetQ2_2 Pin=Q2-2
Added Pin To Net: NetName=NetQ2_2 Pin=R8-2
Added Net: Name=NetQ2_2
Added Pin To Net: NetName=RELAY_DISCHARGE_5V Pin=P6-2
Added Pin To Net: NetName=RELAY_DISCHARGE_5V Pin=Q2-1
Added Pin To Net: NetName=RELAY_DISCHARGE_5V Pin=R6-1
Added Net: Name=RELAY_DISCHARGE_5V
Added Pin To Net: NetName=RELAY_PUMP_5V Pin=P6-3
Added Pin To Net: NetName=RELAY_PUMP_5V Pin=Q1-1
Added Pin To Net: NetName=RELAY_PUMP_5V Pin=R5-1
Added Net: Name=RELAY_PUMP_5V
Added Member To Class: ClassName=BSH_PUMP_VALVE_TEST_MAIN_BOARD Member=Component P6 RELAYS
Added Member To Class: ClassName=BSH_PUMP_VALVE_TEST_MAIN_BOARD Member=Component Q1 NPN
Added Member To Class: ClassName=BSH_PUMP_VALVE_TEST_MAIN_BOARD Member=Component Q2 NPN
Added Member To Class: ClassName=BSH_PUMP_VALVE_TEST_MAIN_BOARD Member=Component R5 RES040000305
Added Member To Class: ClassName=BSH_PUMP_VALVE_TEST_MAIN_BOARD Member=Component R6 RES040000305
Added Member To Class: ClassName=BSH_PUMP_VALVE_TEST_MAIN_BOARD Member=Component R8 RES040000305
